test_run_dir/RegularConvFull_SA_Tiled_NPZ_fully_verifiable_pipeline_should_dump_observed_outputs_for_case0case9_order__mpos/RegularConvFull_SA_Tiled.vcd
$date
2026-01-06T07:34+0000
$end
$version
0.2
$end
$comment

$end
$timescale 1ns  $end
$scope module RegularConvFull_SA_Tiled $end
 $var wire 1 # doneReg $end
 $var wire 32 $ psumReg_0 $end
 $var wire 1 % compBufSel $end
 $var wire 8 & compX_1 $end
 $var wire 8 ' compX_0 $end
 $var wire 1 - compLastTile $end
 $var wire 8 . io_x_in_0_20 $end
 $var wire 8 / io_x_in_0_21 $end
 $var wire 8 0 io_x_in_0_22 $end
 $var wire 8 1 io_x_in_0_23 $end
 $var wire 8 2 io_x_in_0_24 $end
 $var wire 3 3 tileIdx $end
 $var wire 8 4 io_x_in_0_10 $end
 $var wire 8 5 io_x_in_0_11 $end
 $var wire 8 6 io_x_in_0_12 $end
 $var wire 8 7 io_x_in_0_13 $end
 $var wire 8 8 io_x_in_0_14 $end
 $var wire 8 9 io_x_in_0_15 $end
 $var wire 8 : io_x_in_0_16 $end
 $var wire 8 ; io_x_in_0_17 $end
 $var wire 8 < io_x_in_0_18 $end
 $var wire 8 = io_x_in_0_19 $end
 $var wire 4 @ posReg $end
 $var wire 32 B io_y_out_0_7 $end
 $var wire 32 D io_y_out_0_8 $end
 $var wire 32 E io_y_out_0_0 $end
 $var wire 32 F io_y_out_0_1 $end
 $var wire 32 G io_y_out_0_2 $end
 $var wire 32 H io_y_out_0_3 $end
 $var wire 32 I io_y_out_0_4 $end
 $var wire 32 J io_y_out_0_5 $end
 $var wire 32 K io_y_out_0_6 $end
 $var wire 8 L io_x_in_0_7 $end
 $var wire 8 M io_x_in_0_8 $end
 $var wire 8 N io_x_in_0_5 $end
 $var wire 8 P io_x_in_0_6 $end
 $var wire 1 Q compValid $end
 $var wire 8 R io_x_in_0_3 $end
 $var wire 8 S io_x_in_0_4 $end
 $var wire 8 T io_x_in_0_1 $end
 $var wire 8 U io_x_in_0_2 $end
 $var wire 8 V io_x_in_0_0 $end
 $var wire 8 c io_x_in_0_9 $end
 $var wire 1 j bufSel $end
 $var wire 8 l buf0_0 $end
 $var wire 8 m buf0_1 $end
 $var wire 32 q yInitRow_1 $end
 $var wire 32 r yInitRow_0 $end
 $var wire 32 s yInitRow_5 $end
 $var wire 32 t yInitRow_4 $end
 $var wire 32 u yInitRow_3 $end
 $var wire 32 v yInitRow_2 $end
 $var wire 32 w yInitRow_8 $end
 $var wire 32 x yInitRow_7 $end
 $var wire 32 y yInitRow_6 $end
 $var wire 8 | buf1_1 $end
 $var wire 8 } buf1_0 $end
 $var wire 1 "" clock $end
 $var wire 1 "$ isTileEnd $end
 $var wire 8 "( io_w_in_0_5 $end
 $var wire 8 ") io_w_in_0_4 $end
 $var wire 8 "* io_w_in_0_7 $end
 $var wire 8 "+ io_w_in_0_6 $end
 $var wire 8 ", io_w_in_0_1 $end
 $var wire 8 "- io_w_in_0_0 $end
 $var wire 8 ". io_w_in_0_3 $end
 $var wire 8 "/ io_w_in_0_2 $end
 $var wire 4 "0 idxTrunc $end
 $var wire 3 "3 state $end
 $var wire 8 "4 io_w_in_0_8 $end
 $var wire 8 "5 wTile_0_0 $end
 $var wire 8 "7 wTile_0_1 $end
 $var wire 32 "8 yReg_0_7 $end
 $var wire 32 "9 yReg_0_8 $end
 $var wire 32 ": yReg_0_5 $end
 $var wire 32 "; yReg_0_6 $end
 $var wire 32 "< yReg_0_3 $end
 $var wire 32 "= yReg_0_4 $end
 $var wire 1 "? im2col $end
 $var wire 5 "A base_1 $end
 $var wire 5 "G idx $end
 $var wire 1 "H isLastGlobal $end
 $var wire 5 "L idx_1 $end
 $var wire 4 "N gkIdx $end
 $var wire 8 "O xFlat_8 $end
 $var wire 8 "P xFlat_9 $end
 $var wire 8 "Q xFlat_6 $end
 $var wire 8 "R xFlat_7 $end
 $var wire 8 "S xFlat_4 $end
 $var wire 8 "T xFlat_5 $end
 $var wire 8 "U xFlat_2 $end
 $var wire 8 "V xFlat_3 $end
 $var wire 8 "W xFlat_0 $end
 $var wire 8 "X xFlat_1 $end
 $var wire 5 "Y base $end
 $var wire 1 "f reset $end
 $var wire 8 "h xFlat_14 $end
 $var wire 8 "i xFlat_13 $end
 $var wire 8 "j xFlat_16 $end
 $var wire 8 "k xFlat_15 $end
 $var wire 8 "l xFlat_18 $end
 $var wire 8 "m xFlat_17 $end
 $var wire 8 "n xFlat_19 $end
 $var wire 8 "o xFlat_10 $end
 $var wire 8 "p xFlat_12 $end
 $var wire 8 "q xFlat_11 $end
 $var wire 8 "r xFlat_24 $end
 $var wire 8 "s xFlat_21 $end
 $var wire 8 "t xFlat_20 $end
 $var wire 8 "u xFlat_23 $end
 $var wire 8 "v xFlat_22 $end
 $var wire 32 "x yReg_0_1 $end
 $var wire 32 "y yReg_0_2 $end
 $var wire 32 "z yReg_0_0 $end
 $var wire 1 "~ core $end
 $var wire 1 #! io_done $end
 $var wire 1 ## io_start $end
 $var wire 32 #$ yInit_0_8 $end
 $var wire 32 #% yInit_0_7 $end
 $var wire 32 #& yInit_0_6 $end
 $var wire 32 #' yInit_0_5 $end
 $var wire 3 #( compTileIdx $end
 $var wire 1 #) capIdx $end
 $var wire 32 #* yInit_0_4 $end
 $var wire 32 #+ yInit_0_3 $end
 $var wire 32 #, yInit_0_2 $end
 $var wire 32 #- yInit_0_1 $end
 $var wire 32 #. yInit_0_0 $end
 $var wire 4 #/ idxTrunc_1 $end
  $scope module core $end
   $var wire 8 ( io_x_tile_0 $end
   $var wire 8 ) io_x_tile_1 $end
   $var wire 32 e io_psum_in_0 $end
   $var wire 8 o io_w_tile_0_0 $end
   $var wire 8 p io_w_tile_0_1 $end
   $var wire 1 "2 sa $end
   $var wire 32 "E io_psum_out_0 $end
    $scope module sa $end
     $var wire 32 ] io_psum_out_0 $end
     $var wire 32 d io_psum_in_0 $end
     $var wire 8 "& io_b_in_0 $end
     $var wire 8 "' io_b_in_1 $end
     $var wire 1 "1 pe_1 $end
     $var wire 32 "B pWire_0_1 $end
     $var wire 32 "C pWire_0_0 $end
     $var wire 32 "D pWire_0_2 $end
     $var wire 1 "F pe $end
     $var wire 8 "I io_a_in_0_0 $end
     $var wire 8 "J io_a_in_0_1 $end
      $scope module pe $end
       $var wire 32 " io_psum_in $end
       $var wire 32 * scaledAcc $end
       $var wire 8 + io_a_in $end
       $var wire 16 O prod $end
       $var wire 32 { io_psum_out $end
       $var wire 16 "! scaled $end
       $var wire 8 #" io_b_in $end
      $upscope $end
      $scope module pe_1 $end
       $var wire 8 > io_b_in $end
       $var wire 8 A io_a_in $end
       $var wire 32 C io_psum_in $end
       $var wire 32 k scaledAcc $end
       $var wire 16 "% scaled $end
       $var wire 16 "e prod $end
       $var wire 32 "g io_psum_out $end
      $upscope $end
    $upscope $end
  $upscope $end
  $scope module im2col $end
   $var wire 4 ! khIdx $end
   $var wire 5 , addr $end
   $var wire 1 ? io_start $end
   $var wire 8 W io_in_19 $end
   $var wire 8 X io_in_18 $end
   $var wire 8 Y io_in_17 $end
   $var wire 8 Z io_in_16 $end
   $var wire 8 [ io_in_15 $end
   $var wire 8 \ io_in_14 $end
   $var wire 8 ^ io_in_24 $end
   $var wire 8 _ io_in_23 $end
   $var wire 8 ` io_in_22 $end
   $var wire 8 a io_in_21 $end
   $var wire 8 b io_in_20 $end
   $var wire 8 f io_in_13 $end
   $var wire 8 g io_in_12 $end
   $var wire 8 h io_in_11 $end
   $var wire 8 i io_in_10 $end
   $var wire 1 n reset $end
   $var wire 1 z running $end
   $var wire 2 ~ kwIdx $end
   $var wire 4 "# cIdx $end
   $var wire 3 "6 iw $end
   $var wire 4 "> rem $end
   $var wire 4 "@ ih $end
   $var wire 4 "K kIdx $end
   $var wire 10 "M addrWide $end
   $var wire 1 "Z io_valid $end
   $var wire 8 "[ io_in_3 $end
   $var wire 8 "\ io_in_4 $end
   $var wire 8 "] io_in_1 $end
   $var wire 8 "^ io_in_2 $end
   $var wire 8 "_ io_in_0 $end
   $var wire 8 "` io_in_9 $end
   $var wire 8 "a io_in_7 $end
   $var wire 8 "b io_in_8 $end
   $var wire 8 "c io_in_5 $end
   $var wire 8 "d io_in_6 $end
   $var wire 3 "w io_oh $end
   $var wire 1 "{ clock $end
   $var wire 8 "| io_a_out $end
   $var wire 3 "} io_ow $end
  $upscope $end
  $scope module core.sa.pe $end
  $upscope $end
  $scope module core.sa $end
  $upscope $end
  $scope module core.sa.pe_1 $end
  $upscope $end
$upscope $end
$enddefinitions $end
$dumpvars
b00000000000000000000000000000000 *
b00000000 m
b00000000 l
b00000000 g
b00000000 f
b00000000 i
b00000000 h
b00000000 c
b00000000 b
b00000000000000000000000000000000 "
b00000000000000000000000000000000 $
b00000000 _
b00000000 ^
b00000000 a
0?
b00000000 `
b00000000 }
b00000000 |
b00000000 o
b00000000 p
0Q
b00000000 M
b00000000 L
b0000 !
b0000000000000000 "!
b00000000 >
b00000000 A
b00000000 [
b00000000 Z
b00000000 \
b00000000 W
b00000000 V
b00000000 Y
b00000000 X
b00000000 S
b00000000 R
0j
b00000000 U
b00000000 T
b00000000 N
0n
b00000000 P
0z
b0000000000000000 "%
0""
0"$
0"1
0"2
b00000000 "d
b00000000 "k
b00000000 "j
b00000 "L
b00000000 "i
b00000000 "h
b00000000 "o
b00000 "A
b00000000 "n
b00000000 "m
b00000000 "l
b00000000 "s
0"?
b00000000 "r
0#!
b00000000 "q
b00000 "G
b00000000 "p
0##
b00000000 "v
b00000000 "u
b00000000 "t
0"F
0"H
0#)
b00000000 "|
0"Z
0"f
b00 ~
b00000000000000000000000000000000 "g
0"{
0"~
b000 3
b00000000000000000000000000000000 "z
b00000000000000000000000000000000 "y
b00000000000000000000000000000000 "x
b00000 "Y
b00000000000000000000000000000000 "=
b00000000000000000000000000000000 "<
b00000000000000000000000000000000 "C
b00000000000000000000000000000000 #$
b00000000000000000000000000000000 "B
b00000000000000000000000000000000 ";
b00000000000000000000000000000000 ":
b00000000000000000000000000000000 "9
b00000000000000000000000000000000 "8
b0000000000 "M
b00000000000000000000000000000000 #.
b00000000000000000000000000000000 #-
b00000000000000000000000000000000 #'
b00000000000000000000000000000000 "E
b00000000000000000000000000000000 #&
b00000000000000000000000000000000 "D
b00000000000000000000000000000000 #%
b00000000000000000000000000000000 #,
b00000000000000000000000000000000 #+
b00000000000000000000000000000000 #*
b00000000 "'
b00000000 "&
b00000000 "+
b00000000 "*
b00000000 ")
b00000000 "(
b00000000 "/
b00000000 ".
b00000000 "-
b00000000 ",
b00000000 "7
b00000000 "5
b00000000 "4
b00000000 #"
b00000000 "J
b00000000 "I
b00000000 "O
b00000000 "S
b00000000 "R
b00000000 "Q
b00000000 "P
b00000000 "W
b00000000 "V
b00000000 "U
b00000000 "T
b00000000 "[
b00000000 "X
b00000000 "_
b00000000 "^
b00000000 "]
b00000000 "\
b00000000 "c
b00000000 "b
b00000000 "a
b00000000 "`
b0000000000000000 "e
b00000 ,
b000 "w
b000 "}
b0000 "#
b00000000 +
b00000000000000000000000000000000 k
b0000 @
b00000000 '
b00000000 &
b00000000 )
b00000000 (
b00000000000000000000000000000000 e
b00000000000000000000000000000000 d
b0000 "0
b00000000 ;
b00000000000000000000000000000000 {
b00000000 :
b00000000 =
b00000000 <
b00000000 7
b00000000000000000000000000000000 w
b00000000 6
b00000000000000000000000000000000 v
b00000000 9
b00000000000000000000000000000000 y
b00000000 8
b00000000000000000000000000000000 x
b00000000000000000000000000000000 s
b00000000 2
b00000000000000000000000000000000 r
b00000000 5
b00000000000000000000000000000000 u
b0000 ">
b00000000 4
b00000000000000000000000000000000 t
b00000000 /
b0000 "@
b00000000 .
b00000000 1
b00000000000000000000000000000000 q
b00000000 0
b000 "6
b00000000000000000000000000000000 K
b00000000000000000000000000000000 J
b00000000000000000000000000000000 G
b000 "3
b00000000000000000000000000000000 F
b0000 "K
b00000000000000000000000000000000 I
b00000000000000000000000000000000 H
b00000000000000000000000000000000 C
b00000000000000000000000000000000 B
b00000000000000000000000000000000 E
b0000 "N
b0000 #/
b00000000000000000000000000000000 D
b000 #(
b0000000000000000 O
b00000000000000000000000000000000 ]
0#
0%
0-
$end
#0
1"f
b00001 "L
b0001 #/
1n
#1
1""
1"{
#6
b00000001 "b
b11111111 "c
b11111111 "d
0"f
b00000001 "h
b11111111 "i
b11111110 "k
b00000010 "m
b11111111 "n
b11111111 "p
b11111111 "q
b00000010 "r
b00000001 "s
b11111111 "t
b00000001 "u
0"{
b11111111 .
b00000001 /
b00000001 1
b00000010 2
b11111111 5
b11111111 6
b11111111 7
b00000001 8
b11111110 9
b00000010 ;
b11111111 =
0""
b11111110 A
b00000010 ")
b00000001 "*
b11111110 "+
b11111110 ",
b11111110 L
b00000001 M
b11111111 N
b11111111 P
b00000010 "4
b00000010 S
b00000010 T
b11111110 "7
b00000001 V
b11111111 W
b00000010 Y
b11111110 [
b00000001 \
b00000010 ^
b00000001 _
b00000001 a
b11111111 b
b11111110 c
b11111111 f
b11111111 g
b11111111 h
b11111110 "J
b00000001 "O
0n
b11111110 "P
b11111111 "Q
b11111110 p
b11111110 "R
b00000010 "S
b11111111 "T
b00000001 "W
b00000010 "X
b00000010 "\
b00000010 "]
b00000001 "_
b11111110 "`
b11111110 "a
#11
1""
1"{
#16
0""
0"{
#21
1""
1"{
#26
0""
1##
0"{
#31
1""
b001 "3
1"{
1?
#36
0""
0##
0"{
#41
1""
b010 "3
1"Z
1"{
1z
b00000001 "|
0?
#46
0""
0"{
#51
1""
1"$
b00000001 "&
1#)
b00000001 '
b00000001 (
b0001 "K
b0000000001 "M
b00001 ,
b00000001 l
b0001 "N
b001 "6
1"{
b00000010 "|
b0001 ">
b01 ~
b00000001 #"
#56
0""
0"{
#61
1""
0"$
b1111111111111100 "%
b1111111111111100 "e
b00000010 "'
b11111111111111111111111111111100 "g
1Q
b010 "6
1"{
b00000000 "|
b0010 ">
b11111111111111111111111111111100 ]
b11111111111111111111111111111100 "D
b11111111111111111111111111111100 "E
b00000010 &
0#)
b00000010 )
b0010 "K
1j
b11111111111111111111111111111100 k
b0000000010 "M
b00010 ,
b0010 "N
b00000010 m
b001 3
b00000010 >
b10 ~
#66
0""
0"{
#71
1""
1"$
b11111111111111111111111111111100 C
b11111111111111111111111111111000 "g
0Q
b000 "6
1"{
b11111111 "|
b0011 ">
b11111111111111111111111111111000 ]
b0001 "@
b11111111111111111111111111111100 "B
b0001 !
b11111111111111111111111111111100 "C
b11111111111111111111111111111100 "
b11111111111111111111111111111000 "D
b11111111111111111111111111111000 "E
b11111111111111111111111111111100 $
b11111111111111111111111111111100 d
b11111111111111111111111111111100 e
1#)
b0011 "K
b0000000101 "M
b00101 ,
b0011 "N
b11111111111111111111111111111100 {
b00 ~
#76
0""
0"{
#81
1""
b00000000 A
0"$
b0000000000000000 "%
b0000000000000000 "e
b00000000 "&
b11111111 "'
b11111111111111111111111111111100 "g
b0010 "0
1Q
b001 "6
b00000000 "7
1"{
b0100 ">
b11111111111111111111111111111100 ]
b00010 "A
b00000000 #"
b11111111111111111111111111111100 "D
b11111111111111111111111111111100 "E
1%
b001 #(
b00010 "G
b11111111 &
0#)
b00000000 '
b00000000 (
b00000000 "J
b11111111 )
b0100 "K
0j
b00011 "L
b00000000000000000000000000000000 k
b0000000110 "M
b00110 ,
b0011 #/
b0100 "N
b00000000 p
b010 3
b00010 "Y
b11111111 |
b11111111 >
b01 ~
#86
0""
0"{
#91
1""
1"$
1#)
b0101 "K
b0000000111 "M
b00111 ,
b11111111 l
b0101 "N
0Q
b010 "6
1"{
b11111110 "|
b0101 ">
b10 ~
#96
0""
0"{
#101
b11111111111111111111111111111010 "g
1"{
b00000000 "|
b0010 !
0%
b11111110 &
b11111111 '
b11111111 (
b11111110 )
b11111111111111111111111111111110 *
b00000010 +
b01010 ,
b011 3
b11111110 >
b1111111111111110 "!
1""
0"$
b11111111111111111111111111111010 C
b11111111 "&
b11111110 "'
b0100 "0
b1111111111111110 O
1Q
b00000010 "5
b000 "6
b0110 ">
b11111111111111111111111111111010 ]
b0010 "@
b00100 "A
b11111111 #"
b11111111111111111111111111111010 "B
b11111111111111111111111111111010 "D
b11111111111111111111111111111010 "E
b010 #(
b00100 "G
0#)
b00000010 "I
b0110 "K
1j
b00101 "L
b0000001010 "M
b0101 #/
b0110 "N
b11111110 m
b00000010 o
b00100 "Y
b11111111111111111111111111111010 {
b00 ~
#106
0""
0"{
#111
1""
1"$
b11111111111111111111111111111000 C
b11111111111111111111111111111000 "g
0Q
b001 "6
1"{
b11111111 "|
b0111 ">
b11111111111111111111111111111000 ]
b11111111111111111111111111111000 "B
b11111111111111111111111111111010 "C
b11111111111111111111111111111010 "
b11111111111111111111111111111000 "D
b11111111111111111111111111111000 "E
b11111111111111111111111111111010 $
b11111111111111111111111111111010 d
b11111111111111111111111111111010 e
1#)
b0111 "K
b0000001011 "M
b01011 ,
b0111 "N
b11111111111111111111111111111000 {
b01 ~
#116
0""
0"{
#121
b1111111111111111 "e
b11111111111111111111111111111001 "g
1"{
1%
b11111111 &
b00000000 '
b00000000 (
b11111111 )
b00000000000000000000000000000000 *
b11111110 +
b01100 ,
b100 3
b11111111 >
b0000000000000000 "!
1""
b00000001 A
b11111111111111111111111111111010 C
b1111111111111111 "%
b00000000 "&
b11111111 "'
b0110 "0
b0000000000000000 O
1Q
b11111110 "5
b010 "6
b00000001 "7
b1000 ">
b11111111111111111111111111111001 ]
b00110 "A
b00000000 #"
b11111111111111111111111111111010 "B
b11111111111111111111111111111001 "D
b11111111111111111111111111111001 "E
b011 #(
b00110 "G
0#)
1"H
b11111110 "I
b00000001 "J
b1000 "K
0j
b00111 "L
b11111111111111111111111111111111 k
b0000001100 "M
b0111 #/
b1000 "N
b11111110 o
b00000001 p
b00110 "Y
b11111111111111111111111111111010 {
b10 ~
#126
0""
0"{
#131
b0000000000000000 "e
b11111111111111111111111111110111 "g
1"{
b00000000 "|
b11111111111111111111111111111001 "
b11111111111111111111111111111001 $
0%
b11111110 &
b11111111 '
b11111111 (
b11111110 )
b11111111111111111111111111111110 *
b00000010 +
1-
b101 3
b11111110 >
b1111111111111110 "!
1""
b00000000 A
0"$
b11111111111111111111111111110111 C
b0000000000000000 "%
b11111111 "&
b11111110 "'
b1000 "0
b1111111111111110 O
b00000010 "5
b00000000 "7
b11111111111111111111111111110111 ]
b01000 "A
b11111111 #"
b11111111111111111111111111110111 "B
b11111111111111111111111111111001 "C
b11111111111111111111111111110111 "D
b11111111111111111111111111110111 "E
b11111111111111111111111111111001 d
b11111111111111111111111111111001 e
b100 #(
b01000 "G
0"H
b00000010 "I
b00000000 "J
1j
b01001 "L
b00000000000000000000000000000000 k
b1001 #/
b1001 "N
b00000010 o
b00000000 p
b01000 "Y
0"Z
0z
b11111111111111111111111111110111 {
#136
0""
0"{
#141
b0001 @
1""
b11111111111111111111111111110101 "B
b11111111111111111111111111110111 "C
b11111111111111111111111111110111 "
b11111111111111111111111111110101 "D
b11111111111111111111111111110101 C
b11111111111111111111111111110101 "E
b11111111111111111111111111110111 $
b11111111111111111111111111110111 d
b11111111111111111111111111110111 E
b11111111111111111111111111110111 e
b11111111111111111111111111110101 "g
b0000001101 "M
b01101 ,
0Q
b011 "3
b011 "6
b11111111111111111111111111110111 "z
1"{
b11111111111111111111111111110101 {
b001 "}
b11111111111111111111111111110101 ]
#146
0""
0"{
#151
1""
b001 "3
1"{
1?
#156
0""
0"{
#161
1""
b11111111111111111111111111111110 C
b11111111111111111111111111111110 "g
b010 "3
b001 "6
1"{
b00000010 "|
b0000 ">
b11111111111111111111111111111110 ]
b0000 "@
b11111111111111111111111111111110 "B
b0000 !
b00000000000000000000000000000000 "C
b00000000000000000000000000000000 "
b11111111111111111111111111111110 "D
b11111111111111111111111111111110 "E
b00000000000000000000000000000000 $
b00000000000000000000000000000000 d
b00000000000000000000000000000000 e
b0000 "K
0j
b0000000001 "M
b00001 ,
b0000 "N
b000 3
1"Z
1z
b11111111111111111111111111111110 {
b00 ~
0?
#166
0""
0"{
#171
1""
1"$
b00000000000000000000000000000100 C
b00000010 "&
b00000000000000000000000000000100 "g
b0000000000000100 O
b010 "6
1"{
b00000000 "|
b0001 ">
b00000000000000000000000000000100 ]
b00000010 #"
b00000000000000000000000000000100 "B
b00000000000000000000000000000100 "D
b00000000000000000000000000000100 "E
1#)
b00000010 '
b00000010 (
b0001 "K
b00000000000000000000000000000100 *
b0000000010 "M
b00010 ,
b00000010 l
b0001 "N
b00000000000000000000000000000100 {
b01 ~
b0000000000000100 "!
#176
0""
0"{
#181
1""
b11111110 A
0"$
b00000000000000000000000000000000 C
b00000000 "'
b00000000000000000000000000000000 "g
b0000 "0
b0000000000000000 O
1Q
b00000000 "5
b011 "6
b11111110 "7
1"{
b0010 ">
b00000000000000000000000000000000 ]
b00000 "A
b00000000000000000000000000000000 "B
b00000000000000000000000000000000 "D
b00000000000000000000000000000000 "E
b000 #(
b00000 "G
b00000000 &
0#)
b00000000 "I
b11111110 "J
b00000000 )
b0010 "K
b00000000000000000000000000000000 *
1j
b00001 "L
b00000000 +
b0000000011 "M
b00011 ,
b0001 #/
b0010 "N
0-
b00000000 m
b00000000 o
b11111110 p
b001 3
b00000 "Y
b00000000000000000000000000000000 {
b00000000 >
b10 ~
b0000000000000000 "!
#186
0""
0"{
#191
1""
b0001 !
1"$
1#)
b0011 "K
b0000000110 "M
b00110 ,
b0011 "N
0Q
b001 "6
1"{
b11111111 "|
b0011 ">
b00 ~
b0001 "@
#196
0""
0"{
#201
1""
b00000000 A
0"$
b00000000 "&
b11111111 "'
b0010 "0
1Q
b010 "6
b00000000 "7
1"{
b11111110 "|
b0100 ">
b00010 "A
b00000000 #"
1%
b001 #(
b00010 "G
b11111111 &
0#)
b00000000 '
b00000000 (
b00000000 "J
b11111111 )
b0100 "K
0j
b00011 "L
b0000000111 "M
b00111 ,
b0011 #/
b0100 "N
b00000000 p
b010 3
b00010 "Y
b11111111 >
b01 ~
#206
0""
0"{
#211
1""
1"$
1#)
b0101 "K
b0000001000 "M
b01000 ,
b11111110 l
b0101 "N
0Q
b011 "6
1"{
b00000001 "|
b0101 ">
b10 ~
#216
0""
0"{
#221
b11111111111111111111111111111100 "g
1"{
b11111111 "|
b0010 !
0%
b00000001 &
b11111110 '
b11111110 (
b00000001 )
b11111111111111111111111111111100 *
b00000010 +
b01011 ,
b011 3
b00000001 >
b1111111111111100 "!
1""
0"$
b11111111111111111111111111111100 C
b11111110 "&
b00000001 "'
b0100 "0
b1111111111111100 O
1Q
b00000010 "5
b001 "6
b0110 ">
b11111111111111111111111111111100 ]
b0010 "@
b00100 "A
b11111110 #"
b11111111111111111111111111111100 "B
b11111111111111111111111111111100 "D
b11111111111111111111111111111100 "E
b010 #(
b00100 "G
0#)
b00000010 "I
b0110 "K
1j
b00101 "L
b0000001011 "M
b0101 #/
b0110 "N
b00000001 m
b00000010 o
b00100 "Y
b11111111111111111111111111111100 {
b00 ~
#226
0""
0"{
#231
1""
1"$
b11111111111111111111111111111000 C
b11111111111111111111111111111000 "g
0Q
b010 "6
1"{
b0111 ">
b11111111111111111111111111111000 ]
b11111111111111111111111111111000 "B
b11111111111111111111111111111100 "C
b11111111111111111111111111111100 "
b11111111111111111111111111111000 "D
b11111111111111111111111111111000 "E
b11111111111111111111111111111100 $
b11111111111111111111111111111100 d
b11111111111111111111111111111100 e
1#)
b0111 "K
b0000001100 "M
b01100 ,
b0111 "N
b11111111111111111111111111111000 {
b11111111 }
b01 ~
#236
0""
0"{
#241
b1111111111111111 "e
b11111111111111111111111111111101 "g
1"{
1%
b11111111 &
b11111111 '
b11111111 (
b11111111 )
b00000000000000000000000000000010 *
b11111110 +
b01101 ,
b100 3
b11111111 >
b0000000000000010 "!
1""
b00000001 A
b11111111111111111111111111111110 C
b1111111111111111 "%
b11111111 "&
b11111111 "'
b0110 "0
b0000000000000010 O
1Q
b11111110 "5
b011 "6
b00000001 "7
b1000 ">
b11111111111111111111111111111101 ]
b00110 "A
b11111111 #"
b11111111111111111111111111111110 "B
b11111111111111111111111111111101 "D
b11111111111111111111111111111101 "E
b011 #(
b00110 "G
0#)
1"H
b11111110 "I
b00000001 "J
b1000 "K
0j
b00111 "L
b11111111111111111111111111111111 k
b0000001101 "M
b0111 #/
b1000 "N
b11111110 o
b00000001 p
b00110 "Y
b11111111111111111111111111111110 {
b10 ~
#246
0""
0"{
#251
b0000000000000000 "e
b11111111111111111111111111111011 "g
1"{
b00000000 "|
b11111111111111111111111111111101 "
b11111111111111111111111111111101 $
0%
b00000001 &
b00000001 )
b11111111111111111111111111111110 *
b00000010 +
1-
b101 3
b00000001 >
b1111111111111110 "!
1""
b00000000 A
0"$
b11111111111111111111111111111011 C
b0000000000000000 "%
b00000001 "'
b1000 "0
b1111111111111110 O
b00000010 "5
b00000000 "7
b11111111111111111111111111111011 ]
b01000 "A
b11111111111111111111111111111011 "B
b11111111111111111111111111111101 "C
b11111111111111111111111111111011 "D
b11111111111111111111111111111011 "E
b11111111111111111111111111111101 d
b11111111111111111111111111111101 e
b100 #(
b01000 "G
0"H
b00000010 "I
b00000000 "J
1j
b01001 "L
b00000000000000000000000000000000 k
b11111111 l
b1001 #/
b1001 "N
b00000010 o
b00000000 p
b01000 "Y
0"Z
0z
b11111111111111111111111111111011 {
#256
0""
0"{
#261
b0010 @
1""
b11111111111111111111111111111001 "B
b11111111111111111111111111111011 "C
b11111111111111111111111111111011 "
b11111111111111111111111111111001 "D
b11111111111111111111111111111001 C
b11111111111111111111111111111001 "E
b11111111111111111111111111111011 $
b11111111111111111111111111111011 d
b11111111111111111111111111111011 e
b11111111111111111111111111111001 "g
b11111111111111111111111111111011 F
b0000001110 "M
b01110 ,
0Q
b011 "3
b100 "6
b11111111111111111111111111111011 "x
1"{
b11111111111111111111111111111001 {
b010 "}
b11111111111111111111111111111001 ]
#266
0""
0"{
#271
1""
b001 "3
1"{
1?
#276
0""
0"{
#281
1""
b11111111111111111111111111111110 C
b11111111111111111111111111111110 "g
b010 "3
b010 "6
1"{
b0000 ">
b11111111111111111111111111111110 ]
b0000 "@
b11111111111111111111111111111110 "B
b0000 !
b00000000000000000000000000000000 "C
b00000000000000000000000000000000 "
b11111111111111111111111111111110 "D
b11111111111111111111111111111110 "E
b00000000000000000000000000000000 $
b00000000000000000000000000000000 d
b00000000000000000000000000000000 e
b0000 "K
0j
b0000000010 "M
b00010 ,
b0000 "N
b000 3
1"Z
1z
b11111111111111111111111111111110 {
b00 ~
0?
#286
0""
0"{
#291
1""
1"$
b00000000000000000000000000000000 C
b00000000 "&
b00000000000000000000000000000000 "g
b0000000000000000 O
b011 "6
1"{
b0001 ">
b00000000000000000000000000000000 ]
b00000000 #"
b00000000000000000000000000000000 "B
b00000000000000000000000000000000 "D
b00000000000000000000000000000000 "E
1#)
b00000000 '
b00000000 (
b0001 "K
b00000000000000000000000000000000 *
b0000000011 "M
b00011 ,
b00000000 l
b0001 "N
b00000000000000000000000000000000 {
b01 ~
b0000000000000000 "!
#296
0""
0"{
#301
1""
b11111110 A
0"$
b00000000 "'
b0000 "0
1Q
b00000000 "5
b100 "6
b11111110 "7
1"{
b00000010 "|
b0010 ">
b00000 "A
b000 #(
b00000 "G
b00000000 &
0#)
b00000000 "I
b11111110 "J
b00000000 )
b0010 "K
1j
b00001 "L
b00000000 +
b0000000100 "M
b00100 ,
b0001 #/
b0010 "N
0-
b00000000 m
b00000000 o
b11111110 p
b001 3
b00000 "Y
b00000000 >
b10 ~
#306
0""
0"{
#311
1""
b0001 !
1"$
1#)
b0011 "K
b0000000111 "M
b00111 ,
b0011 "N
0Q
b010 "6
1"{
b11111110 "|
b0011 ">
b00000010 }
b00 ~
b0001 "@
#316
0""
0"{
#321
1""
b00000000 A
0"$
b00000010 "&
b11111110 "'
b0010 "0
1Q
b011 "6
b00000000 "7
1"{
b00000001 "|
b0100 ">
b00010 "A
b00000010 #"
1%
b001 #(
b00010 "G
b11111110 &
0#)
b00000010 '
b00000010 (
b00000000 "J
b11111110 )
b0100 "K
0j
b00011 "L
b0000001000 "M
b01000 ,
b0011 #/
b0100 "N
b00000000 p
b010 3
b00010 "Y
b11111110 |
b11111110 >
b01 ~
#326
0""
0"{
#331
1""
1"$
1#)
b0101 "K
b0000001001 "M
b01001 ,
b00000001 l
b0101 "N
0Q
b100 "6
1"{
b11111110 "|
b0101 ">
b10 ~
#336
0""
0"{
#341
1""
0"$
b00000000000000000000000000000010 C
b00000001 "&
b00000000000000000000000000000010 "g
b0100 "0
b0000000000000010 O
1Q
b00000010 "5
b010 "6
1"{
b11111111 "|
b0110 ">
b00000000000000000000000000000010 ]
b0010 "@
b00100 "A
b00000001 #"
b00000000000000000000000000000010 "B
b0010 !
b00000000000000000000000000000010 "D
b00000000000000000000000000000010 "E
0%
b010 #(
b00100 "G
0#)
b00000001 '
b00000010 "I
b00000001 (
b0110 "K
b00000000000000000000000000000010 *
1j
b00101 "L
b00000010 +
b0000001100 "M
b01100 ,
b0101 #/
b0110 "N
b11111110 m
b00000010 o
b011 3
b00100 "Y
b00000000000000000000000000000010 {
b00 ~
b0000000000000010 "!
#346
0""
0"{
