verilator/wave_case1.vcd
$version Generated by VerilatedVcd $end
$timescale 1ps $end
 $scope module TOP $end
  $var wire 1 p clock $end
  $var wire 1 q reset $end
  $var wire 1 r io_start $end
  $var wire 8 s io_x_in_0_0 [7:0] $end
  $var wire 8 t io_x_in_0_1 [7:0] $end
  $var wire 8 u io_x_in_0_2 [7:0] $end
  $var wire 8 v io_x_in_0_3 [7:0] $end
  $var wire 8 w io_x_in_0_4 [7:0] $end
  $var wire 8 x io_x_in_0_5 [7:0] $end
  $var wire 8 y io_x_in_0_6 [7:0] $end
  $var wire 8 z io_x_in_0_7 [7:0] $end
  $var wire 8 { io_x_in_0_8 [7:0] $end
  $var wire 8 | io_x_in_0_9 [7:0] $end
  $var wire 8 } io_x_in_0_10 [7:0] $end
  $var wire 8 ~ io_x_in_0_11 [7:0] $end
  $var wire 8 !! io_x_in_0_12 [7:0] $end
  $var wire 8 "! io_x_in_0_13 [7:0] $end
  $var wire 8 #! io_x_in_0_14 [7:0] $end
  $var wire 8 $! io_x_in_0_15 [7:0] $end
  $var wire 8 %! io_x_in_0_16 [7:0] $end
  $var wire 8 &! io_x_in_0_17 [7:0] $end
  $var wire 8 '! io_x_in_0_18 [7:0] $end
  $var wire 8 (! io_x_in_0_19 [7:0] $end
  $var wire 8 )! io_x_in_0_20 [7:0] $end
  $var wire 8 *! io_x_in_0_21 [7:0] $end
  $var wire 8 +! io_x_in_0_22 [7:0] $end
  $var wire 8 ,! io_x_in_0_23 [7:0] $end
  $var wire 8 -! io_x_in_0_24 [7:0] $end
  $var wire 8 .! io_w_in_0_0 [7:0] $end
  $var wire 8 /! io_w_in_0_1 [7:0] $end
  $var wire 8 0! io_w_in_0_2 [7:0] $end
  $var wire 8 1! io_w_in_0_3 [7:0] $end
  $var wire 8 2! io_w_in_0_4 [7:0] $end
  $var wire 8 3! io_w_in_0_5 [7:0] $end
  $var wire 8 4! io_w_in_0_6 [7:0] $end
  $var wire 8 5! io_w_in_0_7 [7:0] $end
  $var wire 8 6! io_w_in_0_8 [7:0] $end
  $var wire 8 7! io_w_in_1_0 [7:0] $end
  $var wire 8 8! io_w_in_1_1 [7:0] $end
  $var wire 8 9! io_w_in_1_2 [7:0] $end
  $var wire 8 :! io_w_in_1_3 [7:0] $end
  $var wire 8 ;! io_w_in_1_4 [7:0] $end
  $var wire 8 <! io_w_in_1_5 [7:0] $end
  $var wire 8 =! io_w_in_1_6 [7:0] $end
  $var wire 8 >! io_w_in_1_7 [7:0] $end
  $var wire 8 ?! io_w_in_1_8 [7:0] $end
  $var wire 32 @! io_y_out_0_0 [31:0] $end
  $var wire 32 A! io_y_out_0_1 [31:0] $end
  $var wire 32 B! io_y_out_0_2 [31:0] $end
  $var wire 32 C! io_y_out_0_3 [31:0] $end
  $var wire 32 D! io_y_out_0_4 [31:0] $end
  $var wire 32 E! io_y_out_0_5 [31:0] $end
  $var wire 32 F! io_y_out_0_6 [31:0] $end
  $var wire 32 G! io_y_out_0_7 [31:0] $end
  $var wire 32 H! io_y_out_0_8 [31:0] $end
  $var wire 32 I! io_y_out_1_0 [31:0] $end
  $var wire 32 J! io_y_out_1_1 [31:0] $end
  $var wire 32 K! io_y_out_1_2 [31:0] $end
  $var wire 32 L! io_y_out_1_3 [31:0] $end
  $var wire 32 M! io_y_out_1_4 [31:0] $end
  $var wire 32 N! io_y_out_1_5 [31:0] $end
  $var wire 32 O! io_y_out_1_6 [31:0] $end
  $var wire 32 P! io_y_out_1_7 [31:0] $end
  $var wire 32 Q! io_y_out_1_8 [31:0] $end
  $var wire 1 R! io_done $end
  $scope module RegularConvFull_SA_Tiled $end
   $var wire 1 p clock $end
   $var wire 1 q reset $end
   $var wire 1 r io_start $end
   $var wire 8 s io_x_in_0_0 [7:0] $end
   $var wire 8 t io_x_in_0_1 [7:0] $end
   $var wire 8 u io_x_in_0_2 [7:0] $end
   $var wire 8 v io_x_in_0_3 [7:0] $end
   $var wire 8 w io_x_in_0_4 [7:0] $end
   $var wire 8 x io_x_in_0_5 [7:0] $end
   $var wire 8 y io_x_in_0_6 [7:0] $end
   $var wire 8 z io_x_in_0_7 [7:0] $end
   $var wire 8 { io_x_in_0_8 [7:0] $end
   $var wire 8 | io_x_in_0_9 [7:0] $end
   $var wire 8 } io_x_in_0_10 [7:0] $end
   $var wire 8 ~ io_x_in_0_11 [7:0] $end
   $var wire 8 !! io_x_in_0_12 [7:0] $end
   $var wire 8 "! io_x_in_0_13 [7:0] $end
   $var wire 8 #! io_x_in_0_14 [7:0] $end
   $var wire 8 $! io_x_in_0_15 [7:0] $end
   $var wire 8 %! io_x_in_0_16 [7:0] $end
   $var wire 8 &! io_x_in_0_17 [7:0] $end
   $var wire 8 '! io_x_in_0_18 [7:0] $end
   $var wire 8 (! io_x_in_0_19 [7:0] $end
   $var wire 8 )! io_x_in_0_20 [7:0] $end
   $var wire 8 *! io_x_in_0_21 [7:0] $end
   $var wire 8 +! io_x_in_0_22 [7:0] $end
   $var wire 8 ,! io_x_in_0_23 [7:0] $end
   $var wire 8 -! io_x_in_0_24 [7:0] $end
   $var wire 8 .! io_w_in_0_0 [7:0] $end
   $var wire 8 /! io_w_in_0_1 [7:0] $end
   $var wire 8 0! io_w_in_0_2 [7:0] $end
   $var wire 8 1! io_w_in_0_3 [7:0] $end
   $var wire 8 2! io_w_in_0_4 [7:0] $end
   $var wire 8 3! io_w_in_0_5 [7:0] $end
   $var wire 8 4! io_w_in_0_6 [7:0] $end
   $var wire 8 5! io_w_in_0_7 [7:0] $end
   $var wire 8 6! io_w_in_0_8 [7:0] $end
   $var wire 8 7! io_w_in_1_0 [7:0] $end
   $var wire 8 8! io_w_in_1_1 [7:0] $end
   $var wire 8 9! io_w_in_1_2 [7:0] $end
   $var wire 8 :! io_w_in_1_3 [7:0] $end
   $var wire 8 ;! io_w_in_1_4 [7:0] $end
   $var wire 8 <! io_w_in_1_5 [7:0] $end
   $var wire 8 =! io_w_in_1_6 [7:0] $end
   $var wire 8 >! io_w_in_1_7 [7:0] $end
   $var wire 8 ?! io_w_in_1_8 [7:0] $end
   $var wire 32 @! io_y_out_0_0 [31:0] $end
   $var wire 32 A! io_y_out_0_1 [31:0] $end
   $var wire 32 B! io_y_out_0_2 [31:0] $end
   $var wire 32 C! io_y_out_0_3 [31:0] $end
   $var wire 32 D! io_y_out_0_4 [31:0] $end
   $var wire 32 E! io_y_out_0_5 [31:0] $end
   $var wire 32 F! io_y_out_0_6 [31:0] $end
   $var wire 32 G! io_y_out_0_7 [31:0] $end
   $var wire 32 H! io_y_out_0_8 [31:0] $end
   $var wire 32 I! io_y_out_1_0 [31:0] $end
   $var wire 32 J! io_y_out_1_1 [31:0] $end
   $var wire 32 K! io_y_out_1_2 [31:0] $end
   $var wire 32 L! io_y_out_1_3 [31:0] $end
   $var wire 32 M! io_y_out_1_4 [31:0] $end
   $var wire 32 N! io_y_out_1_5 [31:0] $end
   $var wire 32 O! io_y_out_1_6 [31:0] $end
   $var wire 32 P! io_y_out_1_7 [31:0] $end
   $var wire 32 Q! io_y_out_1_8 [31:0] $end
   $var wire 1 R! io_done $end
   $var wire 32 < yReg_0_0 [31:0] $end
   $var wire 32 = yReg_0_1 [31:0] $end
   $var wire 32 > yReg_0_2 [31:0] $end
   $var wire 32 ? yReg_0_3 [31:0] $end
   $var wire 32 @ yReg_0_4 [31:0] $end
   $var wire 32 A yReg_0_5 [31:0] $end
   $var wire 32 B yReg_0_6 [31:0] $end
   $var wire 32 C yReg_0_7 [31:0] $end
   $var wire 32 D yReg_0_8 [31:0] $end
   $var wire 32 E yReg_1_0 [31:0] $end
   $var wire 32 F yReg_1_1 [31:0] $end
   $var wire 32 G yReg_1_2 [31:0] $end
   $var wire 32 H yReg_1_3 [31:0] $end
   $var wire 32 I yReg_1_4 [31:0] $end
   $var wire 32 J yReg_1_5 [31:0] $end
   $var wire 32 K yReg_1_6 [31:0] $end
   $var wire 32 L yReg_1_7 [31:0] $end
   $var wire 32 M yReg_1_8 [31:0] $end
   $var wire 1 N doneReg $end
   $var wire 4 O posReg [3:0] $end
   $var wire 32 P psumReg_0 [31:0] $end
   $var wire 32 Q psumReg_1 [31:0] $end
   $var wire 8 R buf0_0 [7:0] $end
   $var wire 8 S buf0_1 [7:0] $end
   $var wire 8 T buf0_2 [7:0] $end
   $var wire 8 U buf0_3 [7:0] $end
   $var wire 8 V buf1_0 [7:0] $end
   $var wire 8 W buf1_1 [7:0] $end
   $var wire 8 X buf1_2 [7:0] $end
   $var wire 8 Y buf1_3 [7:0] $end
   $var wire 1 Z bufSel $end
   $var wire 4 [ gkIdx [3:0] $end
   $var wire 2 \ capIdx [1:0] $end
   $var wire 2 ] tileIdx [1:0] $end
   $var wire 1 ^ compValid $end
   $var wire 1 _ compBufSel $end
   $var wire 2 ` compTileIdx [1:0] $end
   $var wire 1 a compLastTile $end
   $var wire 3 b state [2:0] $end
   $scope module core $end
    $var wire 8 c io_x_tile_0 [7:0] $end
    $var wire 8 d io_x_tile_1 [7:0] $end
    $var wire 8 e io_x_tile_2 [7:0] $end
    $var wire 8 f io_x_tile_3 [7:0] $end
    $var wire 8 # io_w_tile_0_0 [7:0] $end
    $var wire 8 $ io_w_tile_0_1 [7:0] $end
    $var wire 8 % io_w_tile_0_2 [7:0] $end
    $var wire 8 & io_w_tile_0_3 [7:0] $end
    $var wire 8 ' io_w_tile_1_0 [7:0] $end
    $var wire 8 ( io_w_tile_1_1 [7:0] $end
    $var wire 8 ) io_w_tile_1_2 [7:0] $end
    $var wire 8 * io_w_tile_1_3 [7:0] $end
    $var wire 32 P io_psum_in_0 [31:0] $end
    $var wire 32 Q io_psum_in_1 [31:0] $end
    $var wire 32 + io_psum_out_0 [31:0] $end
    $var wire 32 , io_psum_out_1 [31:0] $end
    $scope module sa $end
     $var wire 8 # io_a_in_0_0 [7:0] $end
     $var wire 8 $ io_a_in_0_1 [7:0] $end
     $var wire 8 % io_a_in_0_2 [7:0] $end
     $var wire 8 & io_a_in_0_3 [7:0] $end
     $var wire 8 ' io_a_in_1_0 [7:0] $end
     $var wire 8 ( io_a_in_1_1 [7:0] $end
     $var wire 8 ) io_a_in_1_2 [7:0] $end
     $var wire 8 * io_a_in_1_3 [7:0] $end
     $var wire 8 c io_b_in_0 [7:0] $end
     $var wire 8 d io_b_in_1 [7:0] $end
     $var wire 8 e io_b_in_2 [7:0] $end
     $var wire 8 f io_b_in_3 [7:0] $end
     $var wire 32 P io_psum_in_0 [31:0] $end
     $var wire 32 Q io_psum_in_1 [31:0] $end
     $var wire 32 + io_psum_out_0 [31:0] $end
     $var wire 32 , io_psum_out_1 [31:0] $end
     $scope module pe $end
      $var wire 8 # io_a_in [7:0] $end
      $var wire 8 c io_b_in [7:0] $end
      $var wire 32 P io_psum_in [31:0] $end
      $var wire 32 - io_psum_out [31:0] $end
      $var wire 16 . prod [15:0] $end
     $upscope $end
     $scope module pe_1 $end
      $var wire 8 $ io_a_in [7:0] $end
      $var wire 8 d io_b_in [7:0] $end
      $var wire 32 - io_psum_in [31:0] $end
      $var wire 32 / io_psum_out [31:0] $end
      $var wire 16 0 prod [15:0] $end
     $upscope $end
     $scope module pe_2 $end
      $var wire 8 % io_a_in [7:0] $end
      $var wire 8 e io_b_in [7:0] $end
      $var wire 32 / io_psum_in [31:0] $end
      $var wire 32 1 io_psum_out [31:0] $end
      $var wire 16 2 prod [15:0] $end
     $upscope $end
     $scope module pe_3 $end
      $var wire 8 & io_a_in [7:0] $end
      $var wire 8 f io_b_in [7:0] $end
      $var wire 32 1 io_psum_in [31:0] $end
      $var wire 32 + io_psum_out [31:0] $end
      $var wire 16 3 prod [15:0] $end
     $upscope $end
     $scope module pe_4 $end
      $var wire 8 ' io_a_in [7:0] $end
      $var wire 8 c io_b_in [7:0] $end
      $var wire 32 Q io_psum_in [31:0] $end
      $var wire 32 4 io_psum_out [31:0] $end
      $var wire 16 5 prod [15:0] $end
     $upscope $end
     $scope module pe_5 $end
      $var wire 8 ( io_a_in [7:0] $end
      $var wire 8 d io_b_in [7:0] $end
      $var wire 32 4 io_psum_in [31:0] $end
      $var wire 32 6 io_psum_out [31:0] $end
      $var wire 16 7 prod [15:0] $end
     $upscope $end
     $scope module pe_6 $end
      $var wire 8 ) io_a_in [7:0] $end
      $var wire 8 e io_b_in [7:0] $end
      $var wire 32 6 io_psum_in [31:0] $end
      $var wire 32 8 io_psum_out [31:0] $end
      $var wire 16 9 prod [15:0] $end
     $upscope $end
     $scope module pe_7 $end
      $var wire 8 * io_a_in [7:0] $end
      $var wire 8 f io_b_in [7:0] $end
      $var wire 32 8 io_psum_in [31:0] $end
      $var wire 32 , io_psum_out [31:0] $end
      $var wire 16 : prod [15:0] $end
     $upscope $end
    $upscope $end
   $upscope $end
   $scope module im2col $end
    $var wire 1 p clock $end
    $var wire 1 q reset $end
    $var wire 8 s io_in_0 [7:0] $end
    $var wire 8 t io_in_1 [7:0] $end
    $var wire 8 u io_in_2 [7:0] $end
    $var wire 8 v io_in_3 [7:0] $end
    $var wire 8 w io_in_4 [7:0] $end
    $var wire 8 x io_in_5 [7:0] $end
    $var wire 8 y io_in_6 [7:0] $end
    $var wire 8 z io_in_7 [7:0] $end
    $var wire 8 { io_in_8 [7:0] $end
    $var wire 8 | io_in_9 [7:0] $end
    $var wire 8 } io_in_10 [7:0] $end
    $var wire 8 ~ io_in_11 [7:0] $end
    $var wire 8 !! io_in_12 [7:0] $end
    $var wire 8 "! io_in_13 [7:0] $end
    $var wire 8 #! io_in_14 [7:0] $end
    $var wire 8 $! io_in_15 [7:0] $end
    $var wire 8 %! io_in_16 [7:0] $end
    $var wire 8 &! io_in_17 [7:0] $end
    $var wire 8 '! io_in_18 [7:0] $end
    $var wire 8 (! io_in_19 [7:0] $end
    $var wire 8 )! io_in_20 [7:0] $end
    $var wire 8 *! io_in_21 [7:0] $end
    $var wire 8 +! io_in_22 [7:0] $end
    $var wire 8 ,! io_in_23 [7:0] $end
    $var wire 8 -! io_in_24 [7:0] $end
    $var wire 3 g io_oh [2:0] $end
    $var wire 3 h io_ow [2:0] $end
    $var wire 1 i io_start $end
    $var wire 8 ; io_a_out [7:0] $end
    $var wire 1 j io_valid $end
    $var wire 1 j running $end
    $var wire 4 k kIdx [3:0] $end
    $var wire 4 l rem [3:0] $end
    $var wire 4 m kwIdx [3:0] $end
   $upscope $end
   $scope module unnamedblk1 $end
    $var wire 1 n isLastGlobal $end
    $var wire 1 o isTileEnd $end
   $upscope $end
  $upscope $end
 $upscope $end
$enddefinitions $end


#0
b00000000 #
b00000000 $
b00000000 %
b00000000 &
b00000000 '
b00000000 (
b00000000 )
b00000000 *
b00000000000000000000000000000000 +
b00000000000000000000000000000000 ,
b00000000000000000000000000000000 -
b0000000000000000 .
b00000000000000000000000000000000 /
b0000000000000000 0
b00000000000000000000000000000000 1
b0000000000000000 2
b0000000000000000 3
b00000000000000000000000000000000 4
b0000000000000000 5
b00000000000000000000000000000000 6
b0000000000000000 7
b00000000000000000000000000000000 8
b0000000000000000 9
b0000000000000000 :
b00000000 ;
b00000000000000000000000000000000 <
b00000000000000000000000000000000 =
b00000000000000000000000000000000 >
b00000000000000000000000000000000 ?
b00000000000000000000000000000000 @
b00000000000000000000000000000000 A
b00000000000000000000000000000000 B
b00000000000000000000000000000000 C
b00000000000000000000000000000000 D
b00000000000000000000000000000000 E
b00000000000000000000000000000000 F
b00000000000000000000000000000000 G
b00000000000000000000000000000000 H
b00000000000000000000000000000000 I
b00000000000000000000000000000000 J
b00000000000000000000000000000000 K
b00000000000000000000000000000000 L
b00000000000000000000000000000000 M
0N
b0000 O
b00000000000000000000000000000000 P
b00000000000000000000000000000000 Q
b00000000 R
b00000000 S
b00000000 T
b00000000 U
b00000000 V
b00000000 W
b00000000 X
b00000000 Y
0Z
b0000 [
b00 \
b00 ]
0^
0_
b00 `
0a
b000 b
b00000000 c
b00000000 d
b00000000 e
b00000000 f
b000 g
b000 h
0i
0j
b0000 k
b0000 l
b0000 m
0n
0o
0p
1q
0r
b00000000 s
b00000000 t
b00000000 u
b00000000 v
b00000000 w
b00000000 x
b00000000 y
b00000000 z
b00000000 {
b00000000 |
b00000000 }
b00000000 ~
b00000000 !!
b00000000 "!
b00000000 #!
b00000000 $!
b00000000 %!
b00000000 &!
b00000000 '!
b00000000 (!
b00000000 )!
b00000000 *!
b00000000 +!
b00000000 ,!
b00000000 -!
b00000000 .!
b00000000 /!
b00000000 0!
b00000000 1!
b00000000 2!
b00000000 3!
b00000000 4!
b00000000 5!
b00000000 6!
b00000000 7!
b00000000 8!
b00000000 9!
b00000000 :!
b00000000 ;!
b00000000 <!
b00000000 =!
b00000000 >!
b00000000 ?!
b00000000000000000000000000000000 @!
b00000000000000000000000000000000 A!
b00000000000000000000000000000000 B!
b00000000000000000000000000000000 C!
b00000000000000000000000000000000 D!
b00000000000000000000000000000000 E!
b00000000000000000000000000000000 F!
b00000000000000000000000000000000 G!
b00000000000000000000000000000000 H!
b00000000000000000000000000000000 I!
b00000000000000000000000000000000 J!
b00000000000000000000000000000000 K!
b00000000000000000000000000000000 L!
b00000000000000000000000000000000 M!
b00000000000000000000000000000000 N!
b00000000000000000000000000000000 O!
b00000000000000000000000000000000 P!
b00000000000000000000000000000000 Q!
0R!
#1
1p
#2
0p
#3
1p
#4
0p
#5
1p
#6
0p
#7
1p
#8
0p
#9
1p
#10
0p
0q
#11
1p
#12
0p
#13
1p
#14
b11111111 #
b00000010 $
b11111111 %
b11111110 &
b11111111 '
b00000001 (
b11111111 )
b11111110 *
0p
1r
b11111110 v
b11111111 w
b11111111 x
b11111110 y
b00000001 z
b11111110 {
b00000010 }
b00000010 ~
b00000010 "!
b11111110 #!
b00000001 $!
b00000001 %!
b00000010 &!
b11111111 '!
b00000010 (!
b00000010 )!
b11111110 *!
b11111110 +!
b11111111 ,!
b00000010 -!
b11111111 .!
b00000010 /!
b11111111 0!
b11111110 1!
b00000001 2!
b11111110 3!
b11111110 4!
b00000001 5!
b00000010 6!
b11111111 7!
b00000001 8!
b11111111 9!
b11111110 :!
b11111110 ;!
b00000001 <!
b00000010 >!
b11111111 ?!
#15
b001 b
1i
1p
#16
0p
0r
#17
b010 b
0i
1j
1p
#18
0p
#19
b0001 [
b01 \
b0001 k
b0001 l
b0001 m
1p
#20
0p
#21
b0010 [
b10 \
b0010 k
b0010 l
b0010 m
1p
#22
0p
#23
b11111111 ;
b0011 [
b11 \
b0011 k
b0011 l
b0000 m
1p
#24
0p
#25
b00000000000000000000000000000010 +
b00000000000000000000000000000010 ,
b0000000000000010 3
b0000000000000010 :
b11111110 ;
b11111111 U
1Z
b0100 [
b00 \
b01 ]
1^
b11111111 f
b0100 k
b0100 l
b0001 m
1o
1p
#26
0p
#27
b00000000000000000000000000000100 +
b00000000000000000000000000000100 ,
b00000000000000000000000000000010 -
b00000000000000000000000000000010 /
b00000000000000000000000000000010 1
b00000000000000000000000000000010 4
b00000000000000000000000000000010 6
b00000000000000000000000000000010 8
b00000001 ;
b00000000000000000000000000000010 P
b00000000000000000000000000000010 Q
b11111110 V
b0101 [
b01 \
0^
b0101 k
b0101 l
b0010 m
0o
1p
#28
0p
#29
b00000010 ;
b00000001 W
b0110 [
b10 \
b0110 k
b0110 l
b0000 m
1p
#30
0p
#31
b00000010 X
b0111 [
b11 \
b0111 k
b0111 l
b0001 m
1p
#32
0p
#33
b00000001 #
b11111110 $
b11111110 %
b00000001 &
b11111110 '
b00000000 )
b00000010 *
b11111111111111111111111111111100 +
b00000000000000000000000000001011 ,
b00000000000000000000000000000000 -
b1111111111111110 .
b11111111111111111111111111111110 /
b1111111111111110 0
b11111111111111111111111111111010 1
b1111111111111100 2
b00000000000000000000000000000110 4
b0000000000000100 5
b00000000000000000000000000000111 6
b0000000000000001 7
b00000000000000000000000000000111 8
b0000000000000100 :
b00000000 ;
b00000010 Y
0Z
b1000 [
b00 \
b10 ]
1^
1_
b01 `
b11111110 c
b00000001 d
b00000010 e
b00000010 f
b1000 k
b1000 l
b0010 m
1o
1p
#34
0p
#35
b00000010 #
b00000000 $
b00000000 %
b00000000 &
b11111111 '
b00000000 (
b00000000 *
b11111111111111111111111111111100 -
b0000000000000000 .
b11111111111111111111111111111100 /
b0000000000000000 0
b11111111111111111111111111111100 1
b0000000000000000 2
b0000000000000000 3
b00000000000000000000000000001011 4
b0000000000000000 5
b00000000000000000000000000001011 6
b0000000000000000 7
b00000000000000000000000000001011 8
b0000000000000000 :
b11111111111111111111111111111100 P
b00000000000000000000000000001011 Q
1Z
b1001 [
b11 ]
0_
b10 `
1a
b00000000 c
b00000000 d
b00000000 e
b11111111 f
0j
1n
1p
#36
0p
#37
b11111111111111111111111111111100 <
b00000000000000000000000000001011 E
b0001 O
0^
b011 b
b001 h
0n
0o
1p
b11111111111111111111111111111100 @!
b00000000000000000000000000001011 I!
#38
0p
#39
b001 b
1i
1p
#40
0p
#41
b00000000000000000000000000000000 +
b00000000000000000000000000000000 ,
b00000000000000000000000000000000 -
b00000000000000000000000000000000 /
b00000000000000000000000000000000 1
b00000000000000000000000000000000 4
b00000000000000000000000000000000 6
b00000000000000000000000000000000 8
b00000000000000000000000000000000 P
b00000000000000000000000000000000 Q
0Z
b0000 [
b00 ]
b010 b
0i
1j
b0000 k
b0000 l
b0000 m
1p
#42
0p
#43
b0001 [
b01 \
b0001 k
b0001 l
b0001 m
1p
#44
0p
#45
b11111110 ;
b0010 [
b10 \
b0010 k
b0010 l
b0010 m
1p
#46
0p
#47
b11111110 T
b0011 [
b11 \
b11111110 e
b0011 k
b0011 l
b0000 m
1p
#48
0p
#49
b11111111 #
b00000010 $
b11111111 %
b11111110 &
b00000001 (
b11111111 )
b11111110 *
b00000000000000000000000000000110 +
b00000000000000000000000000000110 ,
b00000000000000000000000000000010 1
b0000000000000010 2
b0000000000000100 3
b00000000000000000000000000000010 8
b0000000000000010 9
b0000000000000100 :
b00000001 ;
b11111110 U
1Z
b0100 [
b00 \
b01 ]
1^
b00 `
0a
b11111110 f
b0100 k
b0100 l
b0001 m
1o
1p
#50
0p
#51
b00000000000000000000000000001100 +
b00000000000000000000000000001100 ,
b00000000000000000000000000000110 -
b00000000000000000000000000000110 /
b00000000000000000000000000001000 1
b00000000000000000000000000000110 4
b00000000000000000000000000000110 6
b00000000000000000000000000001000 8
b11111110 ;
b00000000000000000000000000000110 P
b00000000000000000000000000000110 Q
b00000001 V
b0101 [
b01 \
0^
b0101 k
b0101 l
b0010 m
0o
1p
#52
0p
#53
b00000010 ;
b11111110 W
b0110 [
b10 \
b0110 k
b0110 l
b0000 m
1p
#54
0p
#55
b00000000 ;
b0111 [
b11 \
b0111 k
b0111 l
b0001 m
1p
#56
0p
#57
b00000001 #
b11111110 $
b11111110 %
b00000001 &
b11111110 '
b00000000 )
b00000010 *
b00000000000000000000000000000111 +
b00000000000000000000000000000010 ,
b00000000000000000000000000000111 -
b0000000000000001 .
b00000000000000000000000000001011 /
b0000000000000100 0
b00000000000000000000000000000111 1
b1111111111111100 2
b0000000000000000 3
b00000000000000000000000000000100 4
b1111111111111110 5
b00000000000000000000000000000010 6
b1111111111111110 7
b00000000000000000000000000000010 8
b0000000000000000 9
b0000000000000000 :
b00000010 ;
b00000000 Y
0Z
b1000 [
b00 \
b10 ]
1^
1_
b01 `
b00000001 c
b11111110 d
b00000010 e
b00000000 f
b1000 k
b1000 l
b0010 m
1o
1p
#58
0p
#59
b00000010 #
b00000000 $
b00000000 %
b00000000 &
b11111111 '
b00000000 (
b00000000 *
b00000000000000000000000000001011 +
b00000000000000000000000000000000 ,
b00000000000000000000000000001011 -
b0000000000000100 .
b0000000000000000 0
b00000000000000000000000000001011 1
b0000000000000000 2
b00000000000000000000000000000000 4
b00000000000000000000000000000000 6
b0000000000000000 7
b00000000000000000000000000000000 8
b00000000 ;
b00000000000000000000000000000111 P
b00000000000000000000000000000010 Q
b00000010 R
1Z
b1001 [
b11 ]
0_
b10 `
1a
b00000010 c
b00000000 d
b11111110 e
b11111110 f
0j
1n
1p
#60
0p
#61
b00000000000000000000000000001111 +
b11111111111111111111111111111110 ,
b00000000000000000000000000001111 -
b00000000000000000000000000001111 /
b00000000000000000000000000001111 1
b11111111111111111111111111111110 4
b11111111111111111111111111111110 6
b11111111111111111111111111111110 8
b00000000000000000000000000001011 =
b0010 O
b00000000000000000000000000001011 P
b00000000000000000000000000000000 Q
0^
b011 b
b010 h
0n
0o
1p
b00000000000000000000000000001011 A!
#62
0p
#63
b001 b
1i
1p
#64
0p
#65
b00000000000000000000000000000100 +
b00000000000000000000000000000100 -
b00000000000000000000000000000100 /
b00000000000000000000000000000100 1
b00000000000000000000000000000000 P
0Z
b0000 [
b00 ]
b010 b
0i
1j
b0000 k
b0000 l
b0000 m
1p
#66
0p
#67
b00000000000000000000000000000000 +
b00000000000000000000000000000000 ,
b00000000000000000000000000000000 -
b0000000000000000 .
b00000000000000000000000000000000 /
b00000000000000000000000000000000 1
b00000000000000000000000000000000 4
b0000000000000000 5
b00000000000000000000000000000000 6
b00000000000000000000000000000000 8
b11111110 ;
b00000000 R
b0001 [
b01 \
b00000000 c
b0001 k
b0001 l
b0001 m
1p
#68
0p
#69
b11111111 ;
b11111110 S
b0010 [
b10 \
b11111110 d
b0010 k
b0010 l
b0010 m
1p
#70
0p
#71
b00000001 ;
b11111111 T
b0011 [
b11 \
b11111111 e
b0011 k
b0011 l
b0000 m
1p
#72
0p
#73
b11111111 #
b00000010 $
b11111111 %
b11111110 &
b00000001 (
b11111111 )
b11111110 *
b11111111111111111111111111111011 +
b11111111111111111111111111111101 ,
b11111111111111111111111111111100 /
b1111111111111100 0
b11111111111111111111111111111101 1
b0000000000000001 2
b1111111111111110 3
b11111111111111111111111111111110 6
b1111111111111110 7
b11111111111111111111111111111111 8
b0000000000000001 9
b1111111111111110 :
b11111110 ;
b00000001 U
1Z
b0100 [
b00 \
b01 ]
1^
b00 `
0a
b00000001 f
b0100 k
b0100 l
b0001 m
1o
1p
#74
0p
#75
b11111111111111111111111111110110 +
b11111111111111111111111111111010 ,
b11111111111111111111111111111011 -
b11111111111111111111111111110111 /
b11111111111111111111111111111000 1
b11111111111111111111111111111101 4
b11111111111111111111111111111011 6
b11111111111111111111111111111100 8
b00000000 ;
b11111111111111111111111111111011 P
b11111111111111111111111111111101 Q
b11111110 V
b0101 [
b01 \
0^
b0101 k
b0101 l
b0010 m
0o
1p
#76
0p
#77
b00000000 W
b0110 [
b10 \
b0110 k
b0110 l
b0000 m
1p
#78
0p
#79
b00000010 ;
b00000000 X
b0111 [
b11 \
b0111 k
b0111 l
b0001 m
1p
#80
0p
#81
b00000001 #
b11111110 $
b11111110 %
b00000001 &
b11111110 '
b00000000 )
b00000010 *
b11111111111111111111111111111011 +
b00000000000000000000000000000101 ,
b11111111111111111111111111111001 -
b1111111111111110 .
b11111111111111111111111111111001 /
b0000000000000000 0
b11111111111111111111111111111001 1
b0000000000000000 2
b0000000000000010 3
b00000000000000000000000000000001 4
b0000000000000100 5
b00000000000000000000000000000001 6
b0000000000000000 7
b00000000000000000000000000000001 8
b0000000000000000 9
b0000000000000100 :
b11111110 ;
b00000010 Y
0Z
b1000 [
b00 \
b10 ]
1^
1_
b01 `
b11111110 c
b00000000 d
b00000000 e
b00000010 f
b1000 k
b1000 l
b0010 m
1o
1p
#82
0p
#83
b00000010 #
b00000000 $
b00000000 %
b00000000 &
b11111111 '
b00000000 (
b00000000 *
b11111111111111111111111111110111 +
b00000000000000000000000000000111 ,
b11111111111111111111111111110111 -
b1111111111111100 .
b11111111111111111111111111110111 /
b11111111111111111111111111110111 1
b0000000000000000 3
b00000000000000000000000000000111 4
b0000000000000010 5
b00000000000000000000000000000111 6
b00000000000000000000000000000111 8
b0000000000000000 :
b00000000 ;
b00000000000000000000000000000101 Q
b11111110 R
1Z
b1001 [
b11 ]
0_
b10 `
1a
b11111110 d
b11111111 e
b00000001 f
0j
1n
1p
#84
0p
#85
b11111111111111111111111111110011 +
b00000000000000000000000000001001 ,
b11111111111111111111111111110011 -
b11111111111111111111111111110011 /
b11111111111111111111111111110011 1
b00000000000000000000000000001001 4
b00000000000000000000000000001001 6
b00000000000000000000000000001001 8
b11111111111111111111111111110111 >
b00000000000000000000000000000111 G
b0011 O
b11111111111111111111111111110111 P
b00000000000000000000000000000111 Q
0^
b011 b
b001 g
b000 h
0n
0o
1p
b11111111111111111111111111110111 B!
b00000000000000000000000000000111 K!
#86
0p
#87
b001 b
1i
1p
#88
0p
#89
b11111111111111111111111111111100 +
b00000000000000000000000000000010 ,
b11111111111111111111111111111100 -
b11111111111111111111111111111100 /
b11111111111111111111111111111100 1
b00000000000000000000000000000010 4
b00000000000000000000000000000010 6
b00000000000000000000000000000010 8
b11111111 ;
b00000000000000000000000000000000 P
b00000000000000000000000000000000 Q
0Z
b0000 [
b00 ]
b010 b
0i
1j
b0000 k
b0000 l
b0000 m
1p
#90
0p
#91
b11111111111111111111111111111110 +
b00000000000000000000000000000001 ,
b11111111111111111111111111111110 -
b1111111111111110 .
b11111111111111111111111111111110 /
b11111111111111111111111111111110 1
b00000000000000000000000000000001 4
b0000000000000001 5
b00000000000000000000000000000001 6
b00000000000000000000000000000001 8
b11111110 ;
b11111111 R
b0001 [
b01 \
b11111111 c
b0001 k
b0001 l
b0001 m
1p
#92
0p
#93
b00000001 ;
b0010 [
b10 \
b0010 k
b0010 l
b0010 m
1p
#94
0p
#95
b00000010 ;
b00000001 T
b0011 [
b11 \
b00000001 e
b0011 k
b0011 l
b0000 m
1p
#96
0p
