verilator/wave_case0.vcd
$version Generated by VerilatedVcd $end
$timescale 1ps $end
 $scope module TOP $end
  $var wire 1 N clock $end
  $var wire 1 O reset $end
  $var wire 1 P io_start $end
  $var wire 8 Q io_x_in_0_0 [7:0] $end
  $var wire 8 R io_x_in_0_1 [7:0] $end
  $var wire 8 S io_x_in_0_2 [7:0] $end
  $var wire 8 T io_x_in_0_3 [7:0] $end
  $var wire 8 U io_x_in_0_4 [7:0] $end
  $var wire 8 V io_x_in_0_5 [7:0] $end
  $var wire 8 W io_x_in_0_6 [7:0] $end
  $var wire 8 X io_x_in_0_7 [7:0] $end
  $var wire 8 Y io_x_in_0_8 [7:0] $end
  $var wire 8 Z io_x_in_0_9 [7:0] $end
  $var wire 8 [ io_x_in_0_10 [7:0] $end
  $var wire 8 \ io_x_in_0_11 [7:0] $end
  $var wire 8 ] io_x_in_0_12 [7:0] $end
  $var wire 8 ^ io_x_in_0_13 [7:0] $end
  $var wire 8 _ io_x_in_0_14 [7:0] $end
  $var wire 8 ` io_x_in_0_15 [7:0] $end
  $var wire 8 a io_x_in_0_16 [7:0] $end
  $var wire 8 b io_x_in_0_17 [7:0] $end
  $var wire 8 c io_x_in_0_18 [7:0] $end
  $var wire 8 d io_x_in_0_19 [7:0] $end
  $var wire 8 e io_x_in_0_20 [7:0] $end
  $var wire 8 f io_x_in_0_21 [7:0] $end
  $var wire 8 g io_x_in_0_22 [7:0] $end
  $var wire 8 h io_x_in_0_23 [7:0] $end
  $var wire 8 i io_x_in_0_24 [7:0] $end
  $var wire 8 j io_w_in_0_0 [7:0] $end
  $var wire 8 k io_w_in_0_1 [7:0] $end
  $var wire 8 l io_w_in_0_2 [7:0] $end
  $var wire 8 m io_w_in_0_3 [7:0] $end
  $var wire 8 n io_w_in_0_4 [7:0] $end
  $var wire 8 o io_w_in_0_5 [7:0] $end
  $var wire 8 p io_w_in_0_6 [7:0] $end
  $var wire 8 q io_w_in_0_7 [7:0] $end
  $var wire 8 r io_w_in_0_8 [7:0] $end
  $var wire 32 s io_y_out_0_0 [31:0] $end
  $var wire 32 t io_y_out_0_1 [31:0] $end
  $var wire 32 u io_y_out_0_2 [31:0] $end
  $var wire 32 v io_y_out_0_3 [31:0] $end
  $var wire 32 w io_y_out_0_4 [31:0] $end
  $var wire 32 x io_y_out_0_5 [31:0] $end
  $var wire 32 y io_y_out_0_6 [31:0] $end
  $var wire 32 z io_y_out_0_7 [31:0] $end
  $var wire 32 { io_y_out_0_8 [31:0] $end
  $var wire 8 | io_y_post_0_0 [7:0] $end
  $var wire 8 } io_y_post_0_1 [7:0] $end
  $var wire 8 ~ io_y_post_0_2 [7:0] $end
  $var wire 8 !! io_y_post_0_3 [7:0] $end
  $var wire 8 "! io_y_post_0_4 [7:0] $end
  $var wire 8 #! io_y_post_0_5 [7:0] $end
  $var wire 8 $! io_y_post_0_6 [7:0] $end
  $var wire 8 %! io_y_post_0_7 [7:0] $end
  $var wire 8 &! io_y_post_0_8 [7:0] $end
  $var wire 1 '! io_done $end
  $scope module RegularConvFull_SA_Tiled $end
   $var wire 1 N clock $end
   $var wire 1 O reset $end
   $var wire 1 P io_start $end
   $var wire 8 Q io_x_in_0_0 [7:0] $end
   $var wire 8 R io_x_in_0_1 [7:0] $end
   $var wire 8 S io_x_in_0_2 [7:0] $end
   $var wire 8 T io_x_in_0_3 [7:0] $end
   $var wire 8 U io_x_in_0_4 [7:0] $end
   $var wire 8 V io_x_in_0_5 [7:0] $end
   $var wire 8 W io_x_in_0_6 [7:0] $end
   $var wire 8 X io_x_in_0_7 [7:0] $end
   $var wire 8 Y io_x_in_0_8 [7:0] $end
   $var wire 8 Z io_x_in_0_9 [7:0] $end
   $var wire 8 [ io_x_in_0_10 [7:0] $end
   $var wire 8 \ io_x_in_0_11 [7:0] $end
   $var wire 8 ] io_x_in_0_12 [7:0] $end
   $var wire 8 ^ io_x_in_0_13 [7:0] $end
   $var wire 8 _ io_x_in_0_14 [7:0] $end
   $var wire 8 ` io_x_in_0_15 [7:0] $end
   $var wire 8 a io_x_in_0_16 [7:0] $end
   $var wire 8 b io_x_in_0_17 [7:0] $end
   $var wire 8 c io_x_in_0_18 [7:0] $end
   $var wire 8 d io_x_in_0_19 [7:0] $end
   $var wire 8 e io_x_in_0_20 [7:0] $end
   $var wire 8 f io_x_in_0_21 [7:0] $end
   $var wire 8 g io_x_in_0_22 [7:0] $end
   $var wire 8 h io_x_in_0_23 [7:0] $end
   $var wire 8 i io_x_in_0_24 [7:0] $end
   $var wire 8 j io_w_in_0_0 [7:0] $end
   $var wire 8 k io_w_in_0_1 [7:0] $end
   $var wire 8 l io_w_in_0_2 [7:0] $end
   $var wire 8 m io_w_in_0_3 [7:0] $end
   $var wire 8 n io_w_in_0_4 [7:0] $end
   $var wire 8 o io_w_in_0_5 [7:0] $end
   $var wire 8 p io_w_in_0_6 [7:0] $end
   $var wire 8 q io_w_in_0_7 [7:0] $end
   $var wire 8 r io_w_in_0_8 [7:0] $end
   $var wire 32 s io_y_out_0_0 [31:0] $end
   $var wire 32 t io_y_out_0_1 [31:0] $end
   $var wire 32 u io_y_out_0_2 [31:0] $end
   $var wire 32 v io_y_out_0_3 [31:0] $end
   $var wire 32 w io_y_out_0_4 [31:0] $end
   $var wire 32 x io_y_out_0_5 [31:0] $end
   $var wire 32 y io_y_out_0_6 [31:0] $end
   $var wire 32 z io_y_out_0_7 [31:0] $end
   $var wire 32 { io_y_out_0_8 [31:0] $end
   $var wire 8 | io_y_post_0_0 [7:0] $end
   $var wire 8 } io_y_post_0_1 [7:0] $end
   $var wire 8 ~ io_y_post_0_2 [7:0] $end
   $var wire 8 !! io_y_post_0_3 [7:0] $end
   $var wire 8 "! io_y_post_0_4 [7:0] $end
   $var wire 8 #! io_y_post_0_5 [7:0] $end
   $var wire 8 $! io_y_post_0_6 [7:0] $end
   $var wire 8 %! io_y_post_0_7 [7:0] $end
   $var wire 8 &! io_y_post_0_8 [7:0] $end
   $var wire 1 '! io_done $end
   $var wire 32 * yReg_0_0 [31:0] $end
   $var wire 32 + yReg_0_1 [31:0] $end
   $var wire 32 , yReg_0_2 [31:0] $end
   $var wire 32 - yReg_0_3 [31:0] $end
   $var wire 32 . yReg_0_4 [31:0] $end
   $var wire 32 / yReg_0_5 [31:0] $end
   $var wire 32 0 yReg_0_6 [31:0] $end
   $var wire 32 1 yReg_0_7 [31:0] $end
   $var wire 32 2 yReg_0_8 [31:0] $end
   $var wire 1 3 doneReg $end
   $var wire 4 4 posReg [3:0] $end
   $var wire 32 5 psumReg_0 [31:0] $end
   $var wire 8 6 buf0_0 [7:0] $end
   $var wire 8 7 buf0_1 [7:0] $end
   $var wire 8 8 buf1_0 [7:0] $end
   $var wire 8 9 buf1_1 [7:0] $end
   $var wire 1 : bufSel $end
   $var wire 4 ; gkIdx [3:0] $end
   $var wire 1 < capIdx $end
   $var wire 3 = tileIdx [2:0] $end
   $var wire 1 > compValid $end
   $var wire 1 ? compBufSel $end
   $var wire 3 @ compTileIdx [2:0] $end
   $var wire 1 A compLastTile $end
   $var wire 3 B state [2:0] $end
   $scope module core $end
    $var wire 8 C io_x_tile_0 [7:0] $end
    $var wire 8 D io_x_tile_1 [7:0] $end
    $var wire 8 # io_w_tile_0_0 [7:0] $end
    $var wire 8 $ io_w_tile_0_1 [7:0] $end
    $var wire 32 5 io_psum_in_0 [31:0] $end
    $var wire 32 % io_psum_out_0 [31:0] $end
    $scope module sa $end
     $var wire 8 # io_a_in_0_0 [7:0] $end
     $var wire 8 $ io_a_in_0_1 [7:0] $end
     $var wire 8 C io_b_in_0 [7:0] $end
     $var wire 8 D io_b_in_1 [7:0] $end
     $var wire 32 5 io_psum_in_0 [31:0] $end
     $var wire 32 % io_psum_out_0 [31:0] $end
     $scope module pe $end
      $var wire 8 # io_a_in [7:0] $end
      $var wire 8 C io_b_in [7:0] $end
      $var wire 32 5 io_psum_in [31:0] $end
      $var wire 32 & io_psum_out [31:0] $end
      $var wire 16 ' prod [15:0] $end
     $upscope $end
     $scope module pe_1 $end
      $var wire 8 $ io_a_in [7:0] $end
      $var wire 8 D io_b_in [7:0] $end
      $var wire 32 & io_psum_in [31:0] $end
      $var wire 32 % io_psum_out [31:0] $end
      $var wire 16 ( prod [15:0] $end
     $upscope $end
    $upscope $end
   $upscope $end
   $scope module im2col $end
    $var wire 1 N clock $end
    $var wire 1 O reset $end
    $var wire 8 Q io_in_0 [7:0] $end
    $var wire 8 R io_in_1 [7:0] $end
    $var wire 8 S io_in_2 [7:0] $end
    $var wire 8 T io_in_3 [7:0] $end
    $var wire 8 U io_in_4 [7:0] $end
    $var wire 8 V io_in_5 [7:0] $end
    $var wire 8 W io_in_6 [7:0] $end
    $var wire 8 X io_in_7 [7:0] $end
    $var wire 8 Y io_in_8 [7:0] $end
    $var wire 8 Z io_in_9 [7:0] $end
    $var wire 8 [ io_in_10 [7:0] $end
    $var wire 8 \ io_in_11 [7:0] $end
    $var wire 8 ] io_in_12 [7:0] $end
    $var wire 8 ^ io_in_13 [7:0] $end
    $var wire 8 _ io_in_14 [7:0] $end
    $var wire 8 ` io_in_15 [7:0] $end
    $var wire 8 a io_in_16 [7:0] $end
    $var wire 8 b io_in_17 [7:0] $end
    $var wire 8 c io_in_18 [7:0] $end
    $var wire 8 d io_in_19 [7:0] $end
    $var wire 8 e io_in_20 [7:0] $end
    $var wire 8 f io_in_21 [7:0] $end
    $var wire 8 g io_in_22 [7:0] $end
    $var wire 8 h io_in_23 [7:0] $end
    $var wire 8 i io_in_24 [7:0] $end
    $var wire 3 E io_oh [2:0] $end
    $var wire 3 F io_ow [2:0] $end
    $var wire 1 G io_start $end
    $var wire 8 ) io_a_out [7:0] $end
    $var wire 1 H io_valid $end
    $var wire 1 H running $end
    $var wire 4 I kIdx [3:0] $end
    $var wire 4 J rem [3:0] $end
    $var wire 4 K kwIdx [3:0] $end
   $upscope $end
   $scope module unnamedblk1 $end
    $var wire 1 L isLastGlobal $end
    $var wire 1 M isTileEnd $end
   $upscope $end
  $upscope $end
 $upscope $end
$enddefinitions $end


#0
b00000000 #
b00000000 $
b00000000000000000000000000000000 %
b00000000000000000000000000000000 &
b0000000000000000 '
b0000000000000000 (
b00000000 )
b00000000000000000000000000000000 *
b00000000000000000000000000000000 +
b00000000000000000000000000000000 ,
b00000000000000000000000000000000 -
b00000000000000000000000000000000 .
b00000000000000000000000000000000 /
b00000000000000000000000000000000 0
b00000000000000000000000000000000 1
b00000000000000000000000000000000 2
03
b0000 4
b00000000000000000000000000000000 5
b00000000 6
b00000000 7
b00000000 8
b00000000 9
0:
b0000 ;
0<
b000 =
0>
0?
b000 @
0A
b000 B
b00000000 C
b00000000 D
b000 E
b000 F
0G
0H
b0000 I
b0000 J
b0000 K
0L
0M
0N
1O
0P
b00000000 Q
b00000000 R
b00000000 S
b00000000 T
b00000000 U
b00000000 V
b00000000 W
b00000000 X
b00000000 Y
b00000000 Z
b00000000 [
b00000000 \
b00000000 ]
b00000000 ^
b00000000 _
b00000000 `
b00000000 a
b00000000 b
b00000000 c
b00000000 d
b00000000 e
b00000000 f
b00000000 g
b00000000 h
b00000000 i
b00000000 j
b00000000 k
b00000000 l
b00000000 m
b00000000 n
b00000000 o
b00000000 p
b00000000 q
b00000000 r
b00000000000000000000000000000000 s
b00000000000000000000000000000000 t
b00000000000000000000000000000000 u
b00000000000000000000000000000000 v
b00000000000000000000000000000000 w
b00000000000000000000000000000000 x
b00000000000000000000000000000000 y
b00000000000000000000000000000000 z
b00000000000000000000000000000000 {
b00000000 |
b00000000 }
b00000000 ~
b00000000 !!
b00000000 "!
b00000000 #!
b00000000 $!
b00000000 %!
b00000000 &!
0'!
#1
1N
#2
0N
#3
1N
#4
0N
#5
1N
#6
0N
#7
1N
#8
0N
#9
1N
#10
0N
0O
#11
1N
#12
0N
#13
1N
#14
b11111110 #
0N
1P
b00000010 R
b00000001 T
b11111111 U
b00000010 V
b11111111 W
b00000010 Z
b11111110 [
b11111110 \
b00000010 ]
b00000001 ^
b00000010 _
b00000001 `
b11111110 a
b00000010 b
b11111111 d
b00000001 f
b11111110 g
b11111110 h
b11111110 j
b00000010 m
b00000001 n
b11111111 o
b00000001 p
b11111111 q
b00000001 r
#15
b001 B
1G
1N
#16
0N
0P
#17
b010 B
0G
1H
1N
#18
0N
#19
b00000010 )
b0001 ;
1<
b0001 I
b0001 J
b0001 K
1N
#20
0N
#21
b00000000 )
b00000010 7
1:
b0010 ;
0<
b001 =
1>
b00000010 D
b0010 I
b0010 J
b0010 K
1M
1N
#22
0N
#23
b00000010 )
b0011 ;
1<
0>
b0011 I
b0011 J
b0000 K
0M
1N
#24
0N
#25
b00000000 #
b00000010 $
b00000000000000000000000000000100 %
b0000000000000100 (
b11111111 )
b00000010 9
0:
b0100 ;
0<
b010 =
1>
1?
b001 @
b0100 I
b0100 J
b0001 K
1M
1N
#26
0N
#27
b00000000000000000000000000001000 %
b00000000000000000000000000000100 &
b00000000 )
b00000000000000000000000000000100 5
b11111111 6
b0101 ;
1<
0>
b0101 I
b0101 J
b0010 K
0M
1N
#28
0N
#29
b00000001 #
b11111111 $
b00000000000000000000000000000011 %
b00000000000000000000000000000011 &
b1111111111111111 '
b0000000000000000 (
b11111110 )
b00000000 7
1:
b0110 ;
0<
b011 =
1>
0?
b010 @
b11111111 C
b00000000 D
b0110 I
b0110 J
b0000 K
1M
1N
#30
0N
#31
b00000000000000000000000000000010 %
b00000000000000000000000000000010 &
b00000000000000000000000000000011 5
b11111110 8
b0111 ;
1<
0>
b0111 I
b0111 J
b0001 K
0M
1N
#32
0N
#33
b00000000000000000000000000000011 %
b00000000000000000000000000000001 &
b1111111111111110 '
b0000000000000010 (
b00000010 )
b11111110 9
0:
b1000 ;
0<
b100 =
1>
1?
b011 @
b11111110 C
b11111110 D
b1000 I
b1000 J
b0010 K
1M
1N
#34
0N
#35
b00000000 $
b00000000000000000000000000000101 %
b00000000000000000000000000000101 &
b0000000000000010 '
b0000000000000000 (
b00000000 )
b00000010 6
1:
b1001 ;
b101 =
0?
b100 @
1A
b00000010 C
b00000000 D
0H
1L
1N
#36
0N
#37
b00000000000000000000000000000111 %
b00000000000000000000000000000111 &
b00000000000000000000000000000101 *
b0001 4
b00000000000000000000000000000101 5
0>
b011 B
b001 F
0L
0M
1N
b00000000000000000000000000000101 s
b00000001 |
#38
0N
#39
b001 B
1G
1N
#40
0N
#41
b00000000000000000000000000000010 %
b00000000000000000000000000000010 &
b00000010 )
b00000000000000000000000000000000 5
0:
b0000 ;
b000 =
b010 B
0G
1H
b0000 I
b0000 J
b0000 K
1N
#42
0N
#43
b00000000 )
b0001 ;
1<
b0001 I
b0001 J
b0001 K
1N
#44
0N
#45
b11111110 #
b11111111111111111111111111111100 %
b11111111111111111111111111111100 &
b1111111111111100 '
b00000001 )
1:
b0010 ;
0<
b001 =
1>
b000 @
0A
b0010 I
b0010 J
b0010 K
1M
1N
#46
0N
#47
b11111111111111111111111111111000 %
b11111111111111111111111111111000 &
b11111111 )
b11111111111111111111111111111100 5
b00000001 8
b0011 ;
1<
0>
b0011 I
b0011 J
b0000 K
0M
1N
#48
0N
#49
b00000000 #
b00000010 $
b11111111111111111111111111111010 %
b11111111111111111111111111111100 &
b0000000000000000 '
b1111111111111110 (
b00000000 )
b11111111 9
0:
b0100 ;
0<
b010 =
1>
1?
b001 @
b00000001 C
b11111111 D
b0100 I
b0100 J
b0001 K
1M
1N
#50
0N
#51
b11111111111111111111111111111000 %
b11111111111111111111111111111010 &
b11111111111111111111111111111010 5
b00000000 6
b0101 ;
1<
0>
b0101 I
b0101 J
b0010 K
0M
1N
#52
0N
#53
b00000001 #
b11111111 $
b11111111111111111111111111111010 %
b0000000000000000 (
b11111110 )
1:
b0110 ;
0<
b011 =
1>
0?
b010 @
b00000000 C
b00000000 D
b0110 I
b0110 J
b0000 K
1M
1N
#54
0N
#55
b00000010 )
b11111110 8
b0111 ;
1<
0>
b0111 I
b0111 J
b0001 K
0M
1N
#56
0N
#57
b11111111111111111111111111110110 %
b11111111111111111111111111111000 &
b1111111111111110 '
b1111111111111110 (
b00000001 )
b00000010 9
0:
b1000 ;
0<
b100 =
1>
1?
b011 @
b11111110 C
b00000010 D
b1000 I
b1000 J
b0010 K
1M
1N
#58
0N
#59
b00000000 $
b11111111111111111111111111110111 %
b11111111111111111111111111110111 &
b0000000000000001 '
b0000000000000000 (
b00000000 )
b11111111111111111111111111110110 5
b00000001 6
1:
b1001 ;
b101 =
0?
b100 @
1A
b00000001 C
b00000000 D
0H
1L
1N
#60
0N
#61
b11111111111111111111111111111000 %
b11111111111111111111111111111000 &
b11111111111111111111111111110111 +
b0010 4
b11111111111111111111111111110111 5
0>
b011 B
b010 F
0L
0M
1N
b11111111111111111111111111110111 t
#62
0N
#63
b001 B
1G
1N
#64
0N
#65
b00000000000000000000000000000001 %
b00000000000000000000000000000001 &
b00000000000000000000000000000000 5
0:
b0000 ;
b000 =
b010 B
0G
1H
b0000 I
b0000 J
b0000 K
1N
#66
0N
#67
b00000000000000000000000000000000 %
b00000000000000000000000000000000 &
b0000000000000000 '
b00000001 )
b00000000 6
b0001 ;
1<
b00000000 C
b0001 I
b0001 J
b0001 K
1N
#68
0N
#69
b11111110 #
b11111111 )
b00000001 7
1:
b0010 ;
0<
b001 =
1>
b000 @
0A
b00000001 D
b0010 I
b0010 J
b0010 K
1M
1N
#70
0N
#71
b00000000 )
b11111111 8
b0011 ;
1<
0>
b0011 I
b0011 J
b0000 K
0M
1N
#72
0N
#73
b00000000 #
b00000010 $
b00000000 9
0:
b0100 ;
0<
b010 =
1>
1?
b001 @
b11111111 C
b00000000 D
b0100 I
b0100 J
b0001 K
1M
1N
#74
0N
#75
b00000010 )
b0101 ;
1<
0>
b0101 I
b0101 J
b0010 K
0M
1N
#76
0N
#77
b00000001 #
b11111111 $
b11111111111111111111111111111110 %
b1111111111111110 (
b00000010 7
1:
b0110 ;
0<
b011 =
1>
0?
b010 @
b00000000 C
b00000010 D
b0110 I
b0110 J
b0000 K
1M
1N
#78
0N
#79
b11111111111111111111111111111100 %
b11111111111111111111111111111110 &
b00000001 )
b11111111111111111111111111111110 5
b00000010 8
b0111 ;
1<
0>
b0111 I
b0111 J
b0001 K
0M
1N
#80
0N
#81
b11111111111111111111111111111111 %
b00000000000000000000000000000000 &
b0000000000000010 '
b1111111111111111 (
b00000010 )
b00000001 9
0:
b1000 ;
0<
b100 =
1>
1?
b011 @
b00000010 C
b00000001 D
b1000 I
b1000 J
b0010 K
1M
1N
#82
0N
#83
b00000000 $
b00000000000000000000000000000001 %
b00000000000000000000000000000001 &
b0000000000000000 (
b00000000 )
b11111111111111111111111111111111 5
b00000010 6
1:
b1001 ;
b101 =
0?
b100 @
1A
b00000010 D
0H
1L
1N
#84
0N
#85
b00000000000000000000000000000011 %
b00000000000000000000000000000011 &
b00000000000000000000000000000001 ,
b0011 4
b00000000000000000000000000000001 5
0>
b011 B
b001 E
b000 F
0L
0M
1N
b00000000000000000000000000000001 u
#86
0N
#87
b001 B
1G
1N
#88
0N
#89
b00000000000000000000000000000010 %
b00000000000000000000000000000010 &
b00000010 )
b00000000000000000000000000000000 5
0:
b0000 ;
b000 =
b010 B
0G
1H
b0000 I
b0000 J
b0000 K
1N
#90
0N
#91
b11111111 )
b0001 ;
1<
b0001 I
b0001 J
b0001 K
1N
#92
0N
#93
b11111110 #
b11111111111111111111111111111100 %
b11111111111111111111111111111100 &
b1111111111111100 '
b00000000 )
b11111111 7
1:
b0010 ;
0<
b001 =
1>
b000 @
0A
b11111111 D
b0010 I
b0010 J
b0010 K
1M
1N
#94
0N
#95
b11111111111111111111111111111000 %
b11111111111111111111111111111000 &
b11111110 )
b11111111111111111111111111111100 5
b00000000 8
b0011 ;
1<
0>
b0011 I
b0011 J
b0000 K
0M
1N
#96
0N
#97
b00000000 #
b00000010 $
b11111111111111111111111111111100 &
b0000000000000000 '
b1111111111111100 (
b11111110 9
0:
b0100 ;
0<
b010 =
1>
1?
b001 @
b00000000 C
b11111110 D
b0100 I
b0100 J
b0001 K
1M
1N
#98
0N
#99
b11111111111111111111111111110100 %
b11111111111111111111111111111000 &
b00000010 )
b11111111111111111111111111111000 5
b11111110 6
b0101 ;
1<
0>
b0101 I
b0101 J
b0010 K
0M
1N
#100
0N
#101
b00000001 #
b11111111 $
b11111111111111111111111111110110 &
b1111111111111110 '
b1111111111111110 (
b00000001 )
b00000010 7
1:
b0110 ;
0<
b011 =
1>
0?
b010 @
b11111110 C
b00000010 D
b0110 I
b0110 J
b0000 K
1M
1N
#102
0N
#103
b11111111111111111111111111110000 %
b11111111111111111111111111110010 &
b11111110 )
b11111111111111111111111111110100 5
b00000001 8
b0111 ;
1<
0>
b0111 I
b0111 J
b0001 K
0M
1N
#104
0N
#105
b11111111111111111111111111110111 %
b11111111111111111111111111110101 &
b0000000000000001 '
b0000000000000010 (
b00000010 )
0:
b1000 ;
0<
b100 =
1>
1?
b011 @
b00000001 C
b11111110 D
b1000 I
b1000 J
b0010 K
1M
1N
#106
0N
#107
b00000000 $
b11111111111111111111111111111001 %
b11111111111111111111111111111001 &
b0000000000000010 '
b0000000000000000 (
b00000000 )
b11111111111111111111111111110111 5
b00000010 6
1:
b1001 ;
b101 =
0?
b100 @
1A
b00000010 C
b00000010 D
0H
1L
1N
#108
0N
#109
b11111111111111111111111111111011 %
b11111111111111111111111111111011 &
b11111111111111111111111111111001 -
b0100 4
b11111111111111111111111111111001 5
0>
b011 B
b001 F
0L
0M
1N
b11111111111111111111111111111001 v
#110
0N
#111
b001 B
1G
1N
#112
0N
#113
b00000000000000000000000000000010 %
b00000000000000000000000000000010 &
b11111111 )
b00000000000000000000000000000000 5
0:
b0000 ;
b000 =
b010 B
0G
1H
b0000 I
b0000 J
b0000 K
1N
#114
0N
#115
b11111111111111111111111111111111 %
b11111111111111111111111111111111 &
b1111111111111111 '
b00000000 )
b11111111 6
b0001 ;
1<
b11111111 C
b0001 I
b0001 J
b0001 K
1N
#116
0N
#117
b11111110 #
b00000000000000000000000000000010 %
b00000000000000000000000000000010 &
b0000000000000010 '
b00000000 7
1:
b0010 ;
0<
b001 =
1>
b000 @
0A
b00000000 D
b0010 I
b0010 J
b0010 K
1M
1N
#118
0N
#119
b00000000000000000000000000000100 %
b00000000000000000000000000000100 &
b11111110 )
b00000000000000000000000000000010 5
b00000000 8
b0011 ;
1<
0>
b0011 I
b0011 J
b0000 K
0M
1N
#120
0N
#121
b00000000 #
b00000010 $
b11111111111111111111111111111110 %
b00000000000000000000000000000010 &
b0000000000000000 '
b1111111111111100 (
b00000010 )
0:
b0100 ;
0<
b010 =
1>
1?
b001 @
b00000000 C
b11111110 D
b0100 I
b0100 J
b0001 K
1M
1N
#122
0N
#123
b11111111111111111111111111111010 %
b11111111111111111111111111111110 &
b00000001 )
b11111111111111111111111111111110 5
b00000010 6
b0101 ;
1<
0>
b0101 I
b0101 J
b0010 K
0M
1N
#124
0N
#125
b00000001 #
b11111111 $
b11111111111111111111111111111111 %
b00000000000000000000000000000000 &
b0000000000000010 '
b1111111111111111 (
b11111110 )
b00000001 7
1:
b0110 ;
0<
b011 =
1>
0?
b010 @
b00000010 C
b00000001 D
b0110 I
b0110 J
b0000 K
1M
1N
#126
0N
#127
b00000000000000000000000000000000 %
b00000000000000000000000000000001 &
b00000010 )
b11111111111111111111111111111111 5
b11111110 8
b0111 ;
1<
0>
b0111 I
b0111 J
b0001 K
0M
1N
#128
0N
#129
b11111111111111111111111111111011 %
b11111111111111111111111111111101 &
b1111111111111110 '
b1111111111111110 (
b00000000 )
b00000010 9
0:
b1000 ;
0<
b100 =
1>
1?
b011 @
b11111110 C
b00000010 D
b1000 I
b1000 J
b0010 K
1M
1N
#130
0N
#131
b00000000 $
b11111111111111111111111111111011 &
b0000000000000000 '
b0000000000000000 (
b11111111111111111111111111111011 5
b00000000 6
1:
b1001 ;
b101 =
0?
b100 @
1A
b00000000 C
b00000001 D
0H
1L
1N
#132
0N
#133
b11111111111111111111111111111011 .
b0101 4
0>
b011 B
b010 F
0L
0M
1N
b11111111111111111111111111111011 w
#134
0N
#135
b001 B
1G
1N
#136
0N
#137
b00000000000000000000000000000000 %
b00000000000000000000000000000000 &
b00000000000000000000000000000000 5
0:
b0000 ;
b000 =
b010 B
0G
1H
b0000 I
b0000 J
b0000 K
1N
#138
0N
#139
b0001 ;
1<
b0001 I
b0001 J
b0001 K
1N
#140
0N
#141
b11111110 #
b00000010 )
b00000000 7
1:
b0010 ;
0<
b001 =
1>
b000 @
0A
b00000000 D
b0010 I
b0010 J
b0010 K
1M
1N
#142
0N
#143
b00000010 8
b0011 ;
1<
0>
b0011 I
b0011 J
b0000 K
0M
1N
#144
0N
#145
b00000000 #
b00000010 $
b00000000000000000000000000000100 %
b0000000000000100 (
b00000001 )
0:
b0100 ;
0<
b010 =
1>
1?
b001 @
b00000010 C
b00000010 D
b0100 I
b0100 J
b0001 K
1M
1N
#146
0N
#147
b00000000000000000000000000001000 %
b00000000000000000000000000000100 &
b00000010 )
b00000000000000000000000000000100 5
b00000001 6
b0101 ;
1<
0>
b0101 I
b0101 J
b0010 K
0M
1N
#148
0N
#149
b00000001 #
b11111111 $
b00000000000000000000000000000011 %
b00000000000000000000000000000101 &
b0000000000000001 '
b1111111111111110 (
b00000010 7
1:
b0110 ;
0<
b011 =
1>
0?
b010 @
b00000001 C
b0110 I
b0110 J
b0000 K
1M
1N
#150
0N
#151
b00000000000000000000000000000010 %
b00000000000000000000000000000100 &
b00000000 )
b00000000000000000000000000000011 5
b0111 ;
1<
0>
b0111 I
b0111 J
b0001 K
0M
1N
#152
0N
#153
b00000000000000000000000000000101 %
b00000000000000000000000000000101 &
b0000000000000010 '
b0000000000000000 (
b11111111 )
b00000000 9
0:
b1000 ;
0<
b100 =
1>
1?
b011 @
b00000010 C
b00000000 D
b1000 I
b1000 J
b0010 K
1M
1N
#154
0N
#155
b00000000 $
b00000000000000000000000000000100 %
b00000000000000000000000000000100 &
b1111111111111111 '
b00000000 )
b00000000000000000000000000000101 5
b11111111 6
1:
b1001 ;
b101 =
0?
b100 @
1A
b11111111 C
b00000010 D
0H
1L
1N
#156
0N
#157
b00000000000000000000000000000011 %
b00000000000000000000000000000011 &
b00000000000000000000000000000100 /
b0110 4
b00000000000000000000000000000100 5
0>
b011 B
b010 E
b000 F
0L
0M
1N
b00000000000000000000000000000100 x
b00000001 #!
#158
0N
#159
b001 B
1G
1N
#160
0N
#161
b11111111111111111111111111111111 %
b11111111111111111111111111111111 &
b11111110 )
b00000000000000000000000000000000 5
0:
b0000 ;
b000 =
b010 B
0G
1H
b0000 I
b0000 J
b0000 K
1N
#162
0N
#163
b11111111111111111111111111111110 %
b11111111111111111111111111111110 &
b1111111111111110 '
b11111110 6
b0001 ;
1<
b11111110 C
b0001 I
b0001 J
b0001 K
1N
#164
0N
#165
b11111110 #
b00000000000000000000000000000100 %
b00000000000000000000000000000100 &
b0000000000000100 '
b00000010 )
b11111110 7
1:
b0010 ;
0<
b001 =
1>
b000 @
0A
b11111110 D
b0010 I
b0010 J
b0010 K
1M
1N
#166
0N
#167
b00000000000000000000000000001000 %
b00000000000000000000000000001000 &
b00000001 )
b00000000000000000000000000000100 5
b0011 ;
1<
0>
b0011 I
b0011 J
b0000 K
0M
1N
#168
0N
#169
b00000000 #
b00000010 $
b00000000000000000000000000000110 %
b00000000000000000000000000000100 &
b0000000000000000 '
b0000000000000010 (
b11111110 )
b00000001 9
0:
b0100 ;
0<
b010 =
1>
1?
b001 @
b00000010 C
b00000001 D
b0100 I
b0100 J
b0001 K
1M
1N
#170
0N
#171
b00000000000000000000000000001000 %
b00000000000000000000000000000110 &
b00000010 )
b00000000000000000000000000000110 5
b0101 ;
1<
0>
b0101 I
b0101 J
b0010 K
0M
1N
#172
0N
#173
b00000001 #
b11111111 $
b00000000000000000000000000000010 %
b00000000000000000000000000000100 &
b1111111111111110 '
b1111111111111110 (
b00000000 )
b00000010 7
1:
b0110 ;
0<
b011 =
1>
0?
b010 @
b11111110 C
b00000010 D
b0110 I
b0110 J
b0000 K
1M
1N
#174
0N
#175
b11111111111111111111111111111110 %
b00000000000000000000000000000000 &
b00000001 )
b00000000000000000000000000000010 5
b00000000 8
b0111 ;
1<
0>
b0111 I
b0111 J
b0001 K
0M
1N
#176
0N
#177
b00000000000000000000000000000001 %
b00000000000000000000000000000010 &
b0000000000000000 '
b1111111111111111 (
b11111110 )
0:
b1000 ;
0<
b100 =
1>
1?
b011 @
b00000000 C
b00000001 D
b1000 I
b1000 J
b0010 K
1M
1N
#178
0N
#179
b00000000 $
b11111111111111111111111111111111 %
b11111111111111111111111111111111 &
b1111111111111110 '
b0000000000000000 (
b00000000 )
b00000000000000000000000000000001 5
1:
b1001 ;
b101 =
0?
b100 @
1A
b11111110 C
b00000010 D
0H
1L
1N
#180
0N
#181
b11111111111111111111111111111101 %
b11111111111111111111111111111101 &
b11111111111111111111111111111111 0
b0111 4
b11111111111111111111111111111111 5
0>
b011 B
b001 F
0L
0M
1N
b11111111111111111111111111111111 y
#182
0N
#183
b001 B
1G
1N
#184
0N
#185
b11111111111111111111111111111110 %
b11111111111111111111111111111110 &
b11111110 )
b00000000000000000000000000000000 5
0:
b0000 ;
b000 =
b010 B
0G
1H
b0000 I
b0000 J
b0000 K
1N
#186
0N
#187
b00000010 )
b0001 ;
1<
b0001 I
b0001 J
b0001 K
1N
#188
0N
