verilator/wave_case2.vcd
$version Generated by VerilatedVcd $end
$timescale 1ps $end
 $scope module TOP $end
  $var wire 1 m clock $end
  $var wire 1 n reset $end
  $var wire 1 o io_start $end
  $var wire 8 p io_x_in_0_0 [7:0] $end
  $var wire 8 q io_x_in_0_1 [7:0] $end
  $var wire 8 r io_x_in_0_2 [7:0] $end
  $var wire 8 s io_x_in_0_3 [7:0] $end
  $var wire 8 t io_x_in_0_4 [7:0] $end
  $var wire 8 u io_x_in_0_5 [7:0] $end
  $var wire 8 v io_x_in_0_6 [7:0] $end
  $var wire 8 w io_x_in_0_7 [7:0] $end
  $var wire 8 x io_x_in_0_8 [7:0] $end
  $var wire 8 y io_x_in_0_9 [7:0] $end
  $var wire 8 z io_x_in_0_10 [7:0] $end
  $var wire 8 { io_x_in_0_11 [7:0] $end
  $var wire 8 | io_x_in_0_12 [7:0] $end
  $var wire 8 } io_x_in_0_13 [7:0] $end
  $var wire 8 ~ io_x_in_0_14 [7:0] $end
  $var wire 8 !! io_x_in_0_15 [7:0] $end
  $var wire 8 "! io_x_in_0_16 [7:0] $end
  $var wire 8 #! io_x_in_0_17 [7:0] $end
  $var wire 8 $! io_x_in_0_18 [7:0] $end
  $var wire 8 %! io_x_in_0_19 [7:0] $end
  $var wire 8 &! io_x_in_0_20 [7:0] $end
  $var wire 8 '! io_x_in_0_21 [7:0] $end
  $var wire 8 (! io_x_in_0_22 [7:0] $end
  $var wire 8 )! io_x_in_0_23 [7:0] $end
  $var wire 8 *! io_x_in_0_24 [7:0] $end
  $var wire 8 +! io_x_in_1_0 [7:0] $end
  $var wire 8 ,! io_x_in_1_1 [7:0] $end
  $var wire 8 -! io_x_in_1_2 [7:0] $end
  $var wire 8 .! io_x_in_1_3 [7:0] $end
  $var wire 8 /! io_x_in_1_4 [7:0] $end
  $var wire 8 0! io_x_in_1_5 [7:0] $end
  $var wire 8 1! io_x_in_1_6 [7:0] $end
  $var wire 8 2! io_x_in_1_7 [7:0] $end
  $var wire 8 3! io_x_in_1_8 [7:0] $end
  $var wire 8 4! io_x_in_1_9 [7:0] $end
  $var wire 8 5! io_x_in_1_10 [7:0] $end
  $var wire 8 6! io_x_in_1_11 [7:0] $end
  $var wire 8 7! io_x_in_1_12 [7:0] $end
  $var wire 8 8! io_x_in_1_13 [7:0] $end
  $var wire 8 9! io_x_in_1_14 [7:0] $end
  $var wire 8 :! io_x_in_1_15 [7:0] $end
  $var wire 8 ;! io_x_in_1_16 [7:0] $end
  $var wire 8 <! io_x_in_1_17 [7:0] $end
  $var wire 8 =! io_x_in_1_18 [7:0] $end
  $var wire 8 >! io_x_in_1_19 [7:0] $end
  $var wire 8 ?! io_x_in_1_20 [7:0] $end
  $var wire 8 @! io_x_in_1_21 [7:0] $end
  $var wire 8 A! io_x_in_1_22 [7:0] $end
  $var wire 8 B! io_x_in_1_23 [7:0] $end
  $var wire 8 C! io_x_in_1_24 [7:0] $end
  $var wire 8 D! io_w_in_0_0 [7:0] $end
  $var wire 8 E! io_w_in_0_1 [7:0] $end
  $var wire 8 F! io_w_in_0_2 [7:0] $end
  $var wire 8 G! io_w_in_0_3 [7:0] $end
  $var wire 8 H! io_w_in_0_4 [7:0] $end
  $var wire 8 I! io_w_in_0_5 [7:0] $end
  $var wire 8 J! io_w_in_0_6 [7:0] $end
  $var wire 8 K! io_w_in_0_7 [7:0] $end
  $var wire 8 L! io_w_in_0_8 [7:0] $end
  $var wire 8 M! io_w_in_0_9 [7:0] $end
  $var wire 8 N! io_w_in_0_10 [7:0] $end
  $var wire 8 O! io_w_in_0_11 [7:0] $end
  $var wire 8 P! io_w_in_0_12 [7:0] $end
  $var wire 8 Q! io_w_in_0_13 [7:0] $end
  $var wire 8 R! io_w_in_0_14 [7:0] $end
  $var wire 8 S! io_w_in_0_15 [7:0] $end
  $var wire 8 T! io_w_in_0_16 [7:0] $end
  $var wire 8 U! io_w_in_0_17 [7:0] $end
  $var wire 32 V! io_y_out_0_0 [31:0] $end
  $var wire 32 W! io_y_out_0_1 [31:0] $end
  $var wire 32 X! io_y_out_0_2 [31:0] $end
  $var wire 32 Y! io_y_out_0_3 [31:0] $end
  $var wire 32 Z! io_y_out_0_4 [31:0] $end
  $var wire 32 [! io_y_out_0_5 [31:0] $end
  $var wire 32 \! io_y_out_0_6 [31:0] $end
  $var wire 32 ]! io_y_out_0_7 [31:0] $end
  $var wire 32 ^! io_y_out_0_8 [31:0] $end
  $var wire 8 _! io_y_post_0_0 [7:0] $end
  $var wire 8 `! io_y_post_0_1 [7:0] $end
  $var wire 8 a! io_y_post_0_2 [7:0] $end
  $var wire 8 b! io_y_post_0_3 [7:0] $end
  $var wire 8 c! io_y_post_0_4 [7:0] $end
  $var wire 8 d! io_y_post_0_5 [7:0] $end
  $var wire 8 e! io_y_post_0_6 [7:0] $end
  $var wire 8 f! io_y_post_0_7 [7:0] $end
  $var wire 8 g! io_y_post_0_8 [7:0] $end
  $var wire 1 h! io_done $end
  $scope module RegularConvFull_SA_Tiled $end
   $var wire 1 m clock $end
   $var wire 1 n reset $end
   $var wire 1 o io_start $end
   $var wire 8 p io_x_in_0_0 [7:0] $end
   $var wire 8 q io_x_in_0_1 [7:0] $end
   $var wire 8 r io_x_in_0_2 [7:0] $end
   $var wire 8 s io_x_in_0_3 [7:0] $end
   $var wire 8 t io_x_in_0_4 [7:0] $end
   $var wire 8 u io_x_in_0_5 [7:0] $end
   $var wire 8 v io_x_in_0_6 [7:0] $end
   $var wire 8 w io_x_in_0_7 [7:0] $end
   $var wire 8 x io_x_in_0_8 [7:0] $end
   $var wire 8 y io_x_in_0_9 [7:0] $end
   $var wire 8 z io_x_in_0_10 [7:0] $end
   $var wire 8 { io_x_in_0_11 [7:0] $end
   $var wire 8 | io_x_in_0_12 [7:0] $end
   $var wire 8 } io_x_in_0_13 [7:0] $end
   $var wire 8 ~ io_x_in_0_14 [7:0] $end
   $var wire 8 !! io_x_in_0_15 [7:0] $end
   $var wire 8 "! io_x_in_0_16 [7:0] $end
   $var wire 8 #! io_x_in_0_17 [7:0] $end
   $var wire 8 $! io_x_in_0_18 [7:0] $end
   $var wire 8 %! io_x_in_0_19 [7:0] $end
   $var wire 8 &! io_x_in_0_20 [7:0] $end
   $var wire 8 '! io_x_in_0_21 [7:0] $end
   $var wire 8 (! io_x_in_0_22 [7:0] $end
   $var wire 8 )! io_x_in_0_23 [7:0] $end
   $var wire 8 *! io_x_in_0_24 [7:0] $end
   $var wire 8 +! io_x_in_1_0 [7:0] $end
   $var wire 8 ,! io_x_in_1_1 [7:0] $end
   $var wire 8 -! io_x_in_1_2 [7:0] $end
   $var wire 8 .! io_x_in_1_3 [7:0] $end
   $var wire 8 /! io_x_in_1_4 [7:0] $end
   $var wire 8 0! io_x_in_1_5 [7:0] $end
   $var wire 8 1! io_x_in_1_6 [7:0] $end
   $var wire 8 2! io_x_in_1_7 [7:0] $end
   $var wire 8 3! io_x_in_1_8 [7:0] $end
   $var wire 8 4! io_x_in_1_9 [7:0] $end
   $var wire 8 5! io_x_in_1_10 [7:0] $end
   $var wire 8 6! io_x_in_1_11 [7:0] $end
   $var wire 8 7! io_x_in_1_12 [7:0] $end
   $var wire 8 8! io_x_in_1_13 [7:0] $end
   $var wire 8 9! io_x_in_1_14 [7:0] $end
   $var wire 8 :! io_x_in_1_15 [7:0] $end
   $var wire 8 ;! io_x_in_1_16 [7:0] $end
   $var wire 8 <! io_x_in_1_17 [7:0] $end
   $var wire 8 =! io_x_in_1_18 [7:0] $end
   $var wire 8 >! io_x_in_1_19 [7:0] $end
   $var wire 8 ?! io_x_in_1_20 [7:0] $end
   $var wire 8 @! io_x_in_1_21 [7:0] $end
   $var wire 8 A! io_x_in_1_22 [7:0] $end
   $var wire 8 B! io_x_in_1_23 [7:0] $end
   $var wire 8 C! io_x_in_1_24 [7:0] $end
   $var wire 8 D! io_w_in_0_0 [7:0] $end
   $var wire 8 E! io_w_in_0_1 [7:0] $end
   $var wire 8 F! io_w_in_0_2 [7:0] $end
   $var wire 8 G! io_w_in_0_3 [7:0] $end
   $var wire 8 H! io_w_in_0_4 [7:0] $end
   $var wire 8 I! io_w_in_0_5 [7:0] $end
   $var wire 8 J! io_w_in_0_6 [7:0] $end
   $var wire 8 K! io_w_in_0_7 [7:0] $end
   $var wire 8 L! io_w_in_0_8 [7:0] $end
   $var wire 8 M! io_w_in_0_9 [7:0] $end
   $var wire 8 N! io_w_in_0_10 [7:0] $end
   $var wire 8 O! io_w_in_0_11 [7:0] $end
   $var wire 8 P! io_w_in_0_12 [7:0] $end
   $var wire 8 Q! io_w_in_0_13 [7:0] $end
   $var wire 8 R! io_w_in_0_14 [7:0] $end
   $var wire 8 S! io_w_in_0_15 [7:0] $end
   $var wire 8 T! io_w_in_0_16 [7:0] $end
   $var wire 8 U! io_w_in_0_17 [7:0] $end
   $var wire 32 V! io_y_out_0_0 [31:0] $end
   $var wire 32 W! io_y_out_0_1 [31:0] $end
   $var wire 32 X! io_y_out_0_2 [31:0] $end
   $var wire 32 Y! io_y_out_0_3 [31:0] $end
   $var wire 32 Z! io_y_out_0_4 [31:0] $end
   $var wire 32 [! io_y_out_0_5 [31:0] $end
   $var wire 32 \! io_y_out_0_6 [31:0] $end
   $var wire 32 ]! io_y_out_0_7 [31:0] $end
   $var wire 32 ^! io_y_out_0_8 [31:0] $end
   $var wire 8 _! io_y_post_0_0 [7:0] $end
   $var wire 8 `! io_y_post_0_1 [7:0] $end
   $var wire 8 a! io_y_post_0_2 [7:0] $end
   $var wire 8 b! io_y_post_0_3 [7:0] $end
   $var wire 8 c! io_y_post_0_4 [7:0] $end
   $var wire 8 d! io_y_post_0_5 [7:0] $end
   $var wire 8 e! io_y_post_0_6 [7:0] $end
   $var wire 8 f! io_y_post_0_7 [7:0] $end
   $var wire 8 g! io_y_post_0_8 [7:0] $end
   $var wire 1 h! io_done $end
   $var wire 32 9 yReg_0_0 [31:0] $end
   $var wire 32 : yReg_0_1 [31:0] $end
   $var wire 32 ; yReg_0_2 [31:0] $end
   $var wire 32 < yReg_0_3 [31:0] $end
   $var wire 32 = yReg_0_4 [31:0] $end
   $var wire 32 > yReg_0_5 [31:0] $end
   $var wire 32 ? yReg_0_6 [31:0] $end
   $var wire 32 @ yReg_0_7 [31:0] $end
   $var wire 32 A yReg_0_8 [31:0] $end
   $var wire 1 B doneReg $end
   $var wire 4 C posReg [3:0] $end
   $var wire 32 D psumReg_0 [31:0] $end
   $var wire 8 E buf0_0 [7:0] $end
   $var wire 8 F buf0_1 [7:0] $end
   $var wire 8 G buf0_2 [7:0] $end
   $var wire 8 H buf0_3 [7:0] $end
   $var wire 8 I buf0_4 [7:0] $end
   $var wire 8 J buf0_5 [7:0] $end
   $var wire 8 K buf0_6 [7:0] $end
   $var wire 8 L buf1_0 [7:0] $end
   $var wire 8 M buf1_1 [7:0] $end
   $var wire 8 N buf1_2 [7:0] $end
   $var wire 8 O buf1_3 [7:0] $end
   $var wire 8 P buf1_4 [7:0] $end
   $var wire 8 Q buf1_5 [7:0] $end
   $var wire 8 R buf1_6 [7:0] $end
   $var wire 1 S bufSel $end
   $var wire 5 T gkIdx [4:0] $end
   $var wire 3 U capIdx [2:0] $end
   $var wire 2 V tileIdx [1:0] $end
   $var wire 1 W compValid $end
   $var wire 1 X compBufSel $end
   $var wire 2 Y compTileIdx [1:0] $end
   $var wire 1 Z compLastTile $end
   $var wire 5 [ idx [4:0] $end
   $var wire 3 \ state [2:0] $end
   $scope module core $end
    $var wire 8 ] io_x_tile_0 [7:0] $end
    $var wire 8 ^ io_x_tile_1 [7:0] $end
    $var wire 8 _ io_x_tile_2 [7:0] $end
    $var wire 8 ` io_x_tile_3 [7:0] $end
    $var wire 8 a io_x_tile_4 [7:0] $end
    $var wire 8 b io_x_tile_5 [7:0] $end
    $var wire 8 c io_x_tile_6 [7:0] $end
    $var wire 8 # io_w_tile_0_0 [7:0] $end
    $var wire 8 $ io_w_tile_0_1 [7:0] $end
    $var wire 8 % io_w_tile_0_2 [7:0] $end
    $var wire 8 & io_w_tile_0_3 [7:0] $end
    $var wire 8 ' io_w_tile_0_4 [7:0] $end
    $var wire 8 ( io_w_tile_0_5 [7:0] $end
    $var wire 8 ) io_w_tile_0_6 [7:0] $end
    $var wire 32 D io_psum_in_0 [31:0] $end
    $var wire 32 * io_psum_out_0 [31:0] $end
    $scope module sa $end
     $var wire 8 # io_a_in_0_0 [7:0] $end
     $var wire 8 $ io_a_in_0_1 [7:0] $end
     $var wire 8 % io_a_in_0_2 [7:0] $end
     $var wire 8 & io_a_in_0_3 [7:0] $end
     $var wire 8 ' io_a_in_0_4 [7:0] $end
     $var wire 8 ( io_a_in_0_5 [7:0] $end
     $var wire 8 ) io_a_in_0_6 [7:0] $end
     $var wire 8 ] io_b_in_0 [7:0] $end
     $var wire 8 ^ io_b_in_1 [7:0] $end
     $var wire 8 _ io_b_in_2 [7:0] $end
     $var wire 8 ` io_b_in_3 [7:0] $end
     $var wire 8 a io_b_in_4 [7:0] $end
     $var wire 8 b io_b_in_5 [7:0] $end
     $var wire 8 c io_b_in_6 [7:0] $end
     $var wire 32 D io_psum_in_0 [31:0] $end
     $var wire 32 * io_psum_out_0 [31:0] $end
     $scope module pe $end
      $var wire 8 # io_a_in [7:0] $end
      $var wire 8 ] io_b_in [7:0] $end
      $var wire 32 D io_psum_in [31:0] $end
      $var wire 32 + io_psum_out [31:0] $end
      $var wire 16 , prod [15:0] $end
     $upscope $end
     $scope module pe_1 $end
      $var wire 8 $ io_a_in [7:0] $end
      $var wire 8 ^ io_b_in [7:0] $end
      $var wire 32 + io_psum_in [31:0] $end
      $var wire 32 - io_psum_out [31:0] $end
      $var wire 16 . prod [15:0] $end
     $upscope $end
     $scope module pe_2 $end
      $var wire 8 % io_a_in [7:0] $end
      $var wire 8 _ io_b_in [7:0] $end
      $var wire 32 - io_psum_in [31:0] $end
      $var wire 32 / io_psum_out [31:0] $end
      $var wire 16 0 prod [15:0] $end
     $upscope $end
     $scope module pe_3 $end
      $var wire 8 & io_a_in [7:0] $end
      $var wire 8 ` io_b_in [7:0] $end
      $var wire 32 / io_psum_in [31:0] $end
      $var wire 32 1 io_psum_out [31:0] $end
      $var wire 16 2 prod [15:0] $end
     $upscope $end
     $scope module pe_4 $end
      $var wire 8 ' io_a_in [7:0] $end
      $var wire 8 a io_b_in [7:0] $end
      $var wire 32 1 io_psum_in [31:0] $end
      $var wire 32 3 io_psum_out [31:0] $end
      $var wire 16 4 prod [15:0] $end
     $upscope $end
     $scope module pe_5 $end
      $var wire 8 ( io_a_in [7:0] $end
      $var wire 8 b io_b_in [7:0] $end
      $var wire 32 3 io_psum_in [31:0] $end
      $var wire 32 5 io_psum_out [31:0] $end
      $var wire 16 6 prod [15:0] $end
     $upscope $end
     $scope module pe_6 $end
      $var wire 8 ) io_a_in [7:0] $end
      $var wire 8 c io_b_in [7:0] $end
      $var wire 32 5 io_psum_in [31:0] $end
      $var wire 32 * io_psum_out [31:0] $end
      $var wire 16 7 prod [15:0] $end
     $upscope $end
    $upscope $end
   $upscope $end
   $scope module im2col $end
    $var wire 1 m clock $end
    $var wire 1 n reset $end
    $var wire 8 p io_in_0 [7:0] $end
    $var wire 8 q io_in_1 [7:0] $end
    $var wire 8 r io_in_2 [7:0] $end
    $var wire 8 s io_in_3 [7:0] $end
    $var wire 8 t io_in_4 [7:0] $end
    $var wire 8 u io_in_5 [7:0] $end
    $var wire 8 v io_in_6 [7:0] $end
    $var wire 8 w io_in_7 [7:0] $end
    $var wire 8 x io_in_8 [7:0] $end
    $var wire 8 y io_in_9 [7:0] $end
    $var wire 8 z io_in_10 [7:0] $end
    $var wire 8 { io_in_11 [7:0] $end
    $var wire 8 | io_in_12 [7:0] $end
    $var wire 8 } io_in_13 [7:0] $end
    $var wire 8 ~ io_in_14 [7:0] $end
    $var wire 8 !! io_in_15 [7:0] $end
    $var wire 8 "! io_in_16 [7:0] $end
    $var wire 8 #! io_in_17 [7:0] $end
    $var wire 8 $! io_in_18 [7:0] $end
    $var wire 8 %! io_in_19 [7:0] $end
    $var wire 8 &! io_in_20 [7:0] $end
    $var wire 8 '! io_in_21 [7:0] $end
    $var wire 8 (! io_in_22 [7:0] $end
    $var wire 8 )! io_in_23 [7:0] $end
    $var wire 8 *! io_in_24 [7:0] $end
    $var wire 8 +! io_in_25 [7:0] $end
    $var wire 8 ,! io_in_26 [7:0] $end
    $var wire 8 -! io_in_27 [7:0] $end
    $var wire 8 .! io_in_28 [7:0] $end
    $var wire 8 /! io_in_29 [7:0] $end
    $var wire 8 0! io_in_30 [7:0] $end
    $var wire 8 1! io_in_31 [7:0] $end
    $var wire 8 2! io_in_32 [7:0] $end
    $var wire 8 3! io_in_33 [7:0] $end
    $var wire 8 4! io_in_34 [7:0] $end
    $var wire 8 5! io_in_35 [7:0] $end
    $var wire 8 6! io_in_36 [7:0] $end
    $var wire 8 7! io_in_37 [7:0] $end
    $var wire 8 8! io_in_38 [7:0] $end
    $var wire 8 9! io_in_39 [7:0] $end
    $var wire 8 :! io_in_40 [7:0] $end
    $var wire 8 ;! io_in_41 [7:0] $end
    $var wire 8 <! io_in_42 [7:0] $end
    $var wire 8 =! io_in_43 [7:0] $end
    $var wire 8 >! io_in_44 [7:0] $end
    $var wire 8 ?! io_in_45 [7:0] $end
    $var wire 8 @! io_in_46 [7:0] $end
    $var wire 8 A! io_in_47 [7:0] $end
    $var wire 8 B! io_in_48 [7:0] $end
    $var wire 8 C! io_in_49 [7:0] $end
    $var wire 3 d io_oh [2:0] $end
    $var wire 3 e io_ow [2:0] $end
    $var wire 1 f io_start $end
    $var wire 8 8 io_a_out [7:0] $end
    $var wire 1 g io_valid $end
    $var wire 1 g running $end
    $var wire 5 h kIdx [4:0] $end
    $var wire 5 i rem [4:0] $end
    $var wire 4 j kwIdx [3:0] $end
   $upscope $end
   $scope module unnamedblk1 $end
    $var wire 1 k isLastGlobal $end
    $var wire 1 l isTileEnd $end
   $upscope $end
  $upscope $end
 $upscope $end
$enddefinitions $end


#0
b00000000 #
b00000000 $
b00000000 %
b00000000 &
b00000000 '
b00000000 (
b00000000 )
b00000000000000000000000000000000 *
b00000000000000000000000000000000 +
b0000000000000000 ,
b00000000000000000000000000000000 -
b0000000000000000 .
b00000000000000000000000000000000 /
b0000000000000000 0
b00000000000000000000000000000000 1
b0000000000000000 2
b00000000000000000000000000000000 3
b0000000000000000 4
b00000000000000000000000000000000 5
b0000000000000000 6
b0000000000000000 7
b00000000 8
b00000000000000000000000000000000 9
b00000000000000000000000000000000 :
b00000000000000000000000000000000 ;
b00000000000000000000000000000000 <
b00000000000000000000000000000000 =
b00000000000000000000000000000000 >
b00000000000000000000000000000000 ?
b00000000000000000000000000000000 @
b00000000000000000000000000000000 A
0B
b0000 C
b00000000000000000000000000000000 D
b00000000 E
b00000000 F
b00000000 G
b00000000 H
b00000000 I
b00000000 J
b00000000 K
b00000000 L
b00000000 M
b00000000 N
b00000000 O
b00000000 P
b00000000 Q
b00000000 R
0S
b00000 T
b000 U
b00 V
0W
0X
b00 Y
0Z
b00000 [
b000 \
b00000000 ]
b00000000 ^
b00000000 _
b00000000 `
b00000000 a
b00000000 b
b00000000 c
b000 d
b000 e
0f
0g
b00000 h
b00000 i
b0000 j
0k
0l
0m
1n
0o
b00000000 p
b00000000 q
b00000000 r
b00000000 s
b00000000 t
b00000000 u
b00000000 v
b00000000 w
b00000000 x
b00000000 y
b00000000 z
b00000000 {
b00000000 |
b00000000 }
b00000000 ~
b00000000 !!
b00000000 "!
b00000000 #!
b00000000 $!
b00000000 %!
b00000000 &!
b00000000 '!
b00000000 (!
b00000000 )!
b00000000 *!
b00000000 +!
b00000000 ,!
b00000000 -!
b00000000 .!
b00000000 /!
b00000000 0!
b00000000 1!
b00000000 2!
b00000000 3!
b00000000 4!
b00000000 5!
b00000000 6!
b00000000 7!
b00000000 8!
b00000000 9!
b00000000 :!
b00000000 ;!
b00000000 <!
b00000000 =!
b00000000 >!
b00000000 ?!
b00000000 @!
b00000000 A!
b00000000 B!
b00000000 C!
b00000000 D!
b00000000 E!
b00000000 F!
b00000000 G!
b00000000 H!
b00000000 I!
b00000000 J!
b00000000 K!
b00000000 L!
b00000000 M!
b00000000 N!
b00000000 O!
b00000000 P!
b00000000 Q!
b00000000 R!
b00000000 S!
b00000000 T!
b00000000 U!
b00000000000000000000000000000000 V!
b00000000000000000000000000000000 W!
b00000000000000000000000000000000 X!
b00000000000000000000000000000000 Y!
b00000000000000000000000000000000 Z!
b00000000000000000000000000000000 [!
b00000000000000000000000000000000 \!
b00000000000000000000000000000000 ]!
b00000000000000000000000000000000 ^!
b00000000 _!
b00000000 `!
b00000000 a!
b00000000 b!
b00000000 c!
b00000000 d!
b00000000 e!
b00000000 f!
b00000000 g!
0h!
#1
1m
#2
0m
#3
1m
#4
0m
#5
1m
#6
0m
#7
1m
#8
0m
#9
1m
#10
0m
0n
#11
1m
#12
0m
#13
1m
#14
b11111110 #
b11111111 %
b11111110 &
b00000001 '
b00000010 (
b00000010 )
0m
1o
b11111110 q
b11111111 s
b00000010 t
b11111110 u
b11111110 w
b11111110 x
b11111110 y
b11111111 z
b11111110 {
b00000001 |
b00000010 }
b00000010 ~
b00000001 !!
b11111110 "!
b00000010 #!
b00000001 $!
b00000001 %!
b11111110 '!
b11111111 (!
b00000010 )!
b11111110 *!
b00000001 ,!
b11111110 /!
b11111110 0!
b00000010 1!
b11111110 2!
b11111110 3!
b00000010 4!
b11111111 5!
b00000001 7!
b11111111 8!
b00000010 9!
b00000001 :!
b00000010 ;!
b00000001 <!
b00000001 =!
b11111111 ?!
b00000010 @!
b00000010 A!
b11111110 B!
b11111110 D!
b11111111 F!
b11111110 G!
b00000001 H!
b00000010 I!
b00000010 J!
b11111111 K!
b11111110 L!
b00000001 M!
b11111110 N!
b11111110 O!
b00000010 P!
b00000001 Q!
b00000001 R!
b11111111 S!
b11111111 T!
b00000001 U!
#15
b001 \
1f
1m
#16
0m
0o
#17
b010 \
0f
1g
1m
#18
0m
#19
b11111110 8
b00001 T
b001 U
b00001 h
b00001 i
b0001 j
1m
#20
0m
#21
b00000000 8
b11111110 F
b00010 T
b010 U
b11111110 ^
b00010 h
b00010 i
b0010 j
1m
#22
0m
#23
b11111110 8
b00011 T
b011 U
b00011 h
b00011 i
b0000 j
1m
#24
0m
#25
b00000000000000000000000000000100 *
b00000000000000000000000000000100 1
b0000000000000100 2
b00000000000000000000000000000100 3
b00000000000000000000000000000100 5
b00000000 8
b11111110 H
b00100 T
b100 U
b11111110 `
b00100 h
b00100 i
b0001 j
1m
#26
0m
#27
b11111110 8
b00101 T
b101 U
b00101 h
b00101 i
b0010 j
1m
#28
0m
#29
b00000000000000000000000000000000 *
b00000000000000000000000000000000 5
b1111111111111100 6
b11111111 8
b11111110 J
b00110 T
b110 U
b11111110 b
b00110 h
b00110 i
b0000 j
1m
#30
0m
#31
b11111111111111111111111111111110 *
b1111111111111110 7
b11111110 8
b11111111 K
1S
b00111 T
b000 U
b01 V
1W
b11111111 c
b00111 h
b00111 i
b0001 j
1l
1m
#32
0m
#33
b11111111111111111111111111111100 *
b11111111111111111111111111111110 +
b11111111111111111111111111111110 -
b11111111111111111111111111111110 /
b00000000000000000000000000000010 1
b00000000000000000000000000000010 3
b11111111111111111111111111111110 5
b00000001 8
b11111111111111111111111111111110 D
b11111110 L
b01000 T
b001 U
0W
b01000 h
b01000 i
b0010 j
0l
1m
#34
0m
#35
b00000000 8
b00000001 M
b01001 T
b010 U
b01001 h
b00000 i
b0000 j
1m
#36
0m
#37
b00000001 8
b01010 T
b011 U
b01010 h
b00001 i
b0001 j
1m
#38
0m
#39
b00000000 8
b00000001 O
b01011 T
b100 U
b01011 h
b00010 i
b0010 j
1m
#40
0m
#41
b11111110 8
b01100 T
b101 U
b01100 h
b00011 i
b0000 j
1m
#42
0m
#43
b00000010 8
b11111110 Q
b01101 T
b110 U
b01101 h
b00100 i
b0001 j
1m
#44
0m
#45
b11111111 #
b11111110 $
b00000001 %
b11111110 '
b00000001 )
b11111111111111111111111111111010 *
b00000000000000000000000000000000 +
b0000000000000010 ,
b1111111111111110 .
b11111111111111111111111111111100 1
b1111111111111110 2
b11111111111111111111111111111100 3
b11111111111111111111111111111000 5
b0000000000000010 7
b11111110 8
b00000010 R
0S
b01110 T
b000 U
b10 V
1W
1X
b01 Y
b00111 [
b11111110 ]
b00000001 ^
b00000001 `
b00000010 c
b01110 h
b00101 i
b0010 j
1l
1m
#46
0m
#47
b11111111111111111111111111110110 *
b11111111111111111111111111111100 +
b11111111111111111111111111111010 -
b11111111111111111111111111111010 /
b11111111111111111111111111111000 1
b11111111111111111111111111111000 3
b11111111111111111111111111110100 5
b11111111 8
b11111111111111111111111111111010 D
b11111110 E
b01111 T
b001 U
0W
b01111 h
b00110 i
b0000 j
0l
1m
#48
0m
#49
b00000000 8
b11111111 F
b10000 T
b010 U
b10000 h
b00111 i
b0001 j
1m
#50
0m
#51
b00000001 8
b10001 T
b011 U
b10001 h
b01000 i
b0010 j
1m
#52
0m
#53
b00000001 #
b11111111 $
b11111111 %
b00000001 &
b00000000 '
b00000000 (
b00000000 )
b11111111111111111111111111111010 *
b11111111111111111111111111111000 +
b1111111111111110 ,
b11111111111111111111111111111001 -
b0000000000000001 .
b11111111111111111111111111111001 /
b11111111111111111111111111111010 1
b0000000000000001 2
b11111111111111111111111111111010 3
b11111111111111111111111111111010 5
b0000000000000000 6
b0000000000000000 7
b00000000 8
b00000001 H
1S
b10010 T
b000 U
b11 V
1W
0X
b10 Y
1Z
b01110 [
b11111111 ^
b11111111 c
0g
1k
1l
1m
#54
0m
#55
b11111111111111111111111111111010 9
b0001 C
0W
b011 \
b001 e
0k
0l
1m
b11111111111111111111111111111010 V!
#56
0m
#57
b001 \
1f
1m
#58
0m
#59
b00000000000000000000000000000000 *
b11111111111111111111111111111110 +
b11111111111111111111111111111111 -
b11111111111111111111111111111111 /
b00000000000000000000000000000000 1
b00000000000000000000000000000000 3
b00000000000000000000000000000000 5
b11111110 8
b00000000000000000000000000000000 D
0S
b00000 T
b00 V
b010 \
0f
1g
b00000 h
b00000 i
b0000 j
1m
#60
0m
#61
b00000000 8
b00001 T
b001 U
b00001 h
b00001 i
b0001 j
1m
#62
0m
#63
b11111111111111111111111111111111 *
b11111111111111111111111111111110 -
b0000000000000000 .
b11111111111111111111111111111110 /
b11111111111111111111111111111111 1
b11111111111111111111111111111111 3
b11111111111111111111111111111111 5
b11111111 8
b00000000 F
b00010 T
b010 U
b00000000 ^
b00010 h
b00010 i
b0010 j
1m
#64
0m
#65
b00000000000000000000000000000000 *
b11111111111111111111111111111111 /
b0000000000000001 0
b00000000000000000000000000000000 1
b00000000000000000000000000000000 3
b00000000000000000000000000000000 5
b00000000 8
b11111111 G
b00011 T
b011 U
b11111111 _
b00011 h
b00011 i
b0000 j
1m
#66
0m
#67
b11111111111111111111111111111111 *
b11111111111111111111111111111111 1
b0000000000000000 2
b11111111111111111111111111111111 3
b11111111111111111111111111111111 5
b11111110 8
b00000000 H
b00100 T
b100 U
b00000000 `
b00100 h
b00100 i
b0001 j
1m
#68
0m
#69
b11111110 I
b00101 T
b101 U
b11111110 a
b00101 h
b00101 i
b0010 j
1m
#70
0m
#71
b00110 T
b110 U
b00110 h
b00110 i
b0000 j
1m
#72
0m
#73
b11111110 #
b00000000 $
b11111110 &
b00000001 '
b00000010 (
b00000010 )
b11111111111111111111111111111011 *
b00000000000000000000000000000100 +
b0000000000000100 ,
b00000000000000000000000000000100 -
b00000000000000000000000000000101 /
b00000000000000000000000000000101 1
b00000000000000000000000000000011 3
b1111111111111110 4
b1111111111111100 6
b1111111111111100 7
b00000001 8
b11111110 K
1S
b00111 T
b000 U
b01 V
1W
b00 Y
0Z
b00000 [
b11111110 c
b00111 h
b00111 i
b0001 j
1l
1m
#74
0m
#75
b11111111111111111111111111110110 *
b11111111111111111111111111111111 +
b11111111111111111111111111111111 -
b00000000000000000000000000000000 /
b00000000000000000000000000000000 1
b11111111111111111111111111111110 3
b11111111111111111111111111111010 5
b00000010 8
b11111111111111111111111111111011 D
b00000001 L
b01000 T
b001 U
0W
b01000 h
b01000 i
b0010 j
0l
1m
#76
0m
#77
b00000001 8
b00000010 M
b01001 T
b010 U
b01001 h
b00000 i
b0000 j
1m
#78
0m
#79
b00000000 8
b00000001 N
b01010 T
b011 U
b01010 h
b00001 i
b0001 j
1m
#80
0m
#81
b00000000 O
b01011 T
b100 U
b01011 h
b00010 i
b0010 j
1m
#82
0m
#83
b00000010 8
b01100 T
b101 U
b01100 h
b00011 i
b0000 j
1m
#84
0m
#85
b11111110 8
b00000010 Q
b01101 T
b110 U
b01101 h
b00100 i
b0001 j
1m
#86
0m
#87
b11111111 #
b11111110 $
b00000001 %
b11111110 '
b00000001 )
b11111111111111111111111111111001 *
b11111111111111111111111111111010 +
b1111111111111111 ,
b11111111111111111111111111110110 -
b1111111111111100 .
b11111111111111111111111111110111 /
b11111111111111111111111111110111 1
b11111111111111111111111111110111 3
b0000000000000000 4
b11111111111111111111111111111011 5
b0000000000000100 6
b1111111111111110 7
b11111110 R
0S
b01110 T
b000 U
b10 V
1W
1X
b01 Y
b00111 [
b00000001 ]
b00000010 ^
b00000001 _
b00000000 a
b00000010 b
b01110 h
b00101 i
b0010 j
1l
1m
#88
0m
