test_run_dir/RegularConvFullKTile_should_accumulate_partial_sums_across_Ktiles_correctly/RegularConvFullKTile.vcd
$date
2026-01-05T12:35+0000
$end
$version
0.2
$end
$comment

$end
$timescale 1ns  $end
$scope module RegularConvFullKTile $end
 $var wire 8 " io_x_tiles_0_0 $end
 $var wire 8 # io_x_tiles_0_1 $end
 $var wire 8 & io_w_tiles_0_0_1 $end
 $var wire 2 ) state $end
 $var wire 8 * io_w_tiles_0_0_0 $end
 $var wire 1 . reset $end
 $var wire 32 8 psum_0 $end
 $var wire 8 = io_w_tiles_1_0_0 $end
 $var wire 8 > io_w_tiles_1_0_1 $end
 $var wire 1 ? tileIdx $end
 $var wire 1 C clock $end
 $var wire 1 E core $end
 $var wire 32 G io_out_0 $end
 $var wire 1 H io_done $end
 $var wire 8 L io_x_tiles_1_1 $end
 $var wire 8 M io_x_tiles_1_0 $end
 $var wire 1 P io_start $end
  $scope module core $end
   $var wire 1 ( sa $end
   $var wire 32 , io_psum_in_0 $end
   $var wire 8 1 io_x_tile_0 $end
   $var wire 8 2 io_x_tile_1 $end
   $var wire 8 4 io_w_tile_0_0 $end
   $var wire 8 6 io_w_tile_0_1 $end
   $var wire 1 7 reset $end
   $var wire 32 @ io_psum_out_0 $end
   $var wire 1 D clock $end
   $var wire 1 O io_start $end
   $var wire 1 R io_done $end
   $var wire 1 U doneReg $end
    $scope module sa $end
     $var wire 1 $ pe_1 $end
     $var wire 32 % io_psum_out_0 $end
     $var wire 32 + io_psum_in_0 $end
     $var wire 32 : pWire_0_1 $end
     $var wire 32 ; pWire_0_0 $end
     $var wire 32 < pWire_0_2 $end
     $var wire 1 B pe $end
     $var wire 8 J io_a_in_0_0 $end
     $var wire 8 K io_a_in_0_1 $end
     $var wire 8 T io_b_in_0 $end
     $var wire 8 V io_b_in_1 $end
      $scope module pe $end
       $var wire 16 ! prod $end
       $var wire 32 ' io_psum_in $end
       $var wire 32 3 scaledAcc $end
       $var wire 8 5 io_a_in $end
       $var wire 32 9 io_psum_out $end
       $var wire 16 A scaled $end
       $var wire 8 I io_b_in $end
      $upscope $end
      $scope module pe_1 $end
       $var wire 16 - prod $end
       $var wire 32 / io_psum_out $end
       $var wire 32 0 scaledAcc $end
       $var wire 8 F io_b_in $end
       $var wire 8 N io_a_in $end
       $var wire 32 Q io_psum_in $end
       $var wire 16 S scaled $end
      $upscope $end
    $upscope $end
  $upscope $end
  $scope module core.sa.pe $end
  $upscope $end
  $scope module core.sa $end
  $upscope $end
  $scope module core.sa.pe_1 $end
  $upscope $end
$upscope $end
$enddefinitions $end
$dumpvars
b0000000000000000 !
b00000000000000000000000000000000 +
b00000000000000000000000000000000 ,
b00000000000000000000000000000000 '
07
b00000000000000000000000000000000 %
b0000000000000000 -
0?
b00 )
b00000000000000000000000000000000 ;
b00000000000000000000000000000000 :
0B
0C
b00000000000000000000000000000000 <
0D
0E
b00000000000000000000000000000000 9
b00000000000000000000000000000000 8
0H
b00000000000000000000000000000000 3
b00000000000000000000000000000000 /
0O
b00000000000000000000000000000000 0
0P
b00000000 K
b00000000 J
0R
b00000000 M
b00000000 L
0U
b00000000 F
b00000000 I
b00000000 >
b00000000 V
b00000000 T
b00000000 N
b00000000 *
b00000000 &
b00000000 #
b00000000 "
b00000000 =
b00000000 6
b00000000 2
b00000000 5
b00000000 4
b00000000 1
b0000000000000000 A
b00000000000000000000000000000000 G
b00000000000000000000000000000000 @
0$
b0000000000000000 S
0(
0.
b00000000000000000000000000000000 Q
$end
#0
17
1.
#1
1C
1D
#6
b00000000000000000000000000010001 @
b0000000000000101 A
0C
0D
b00000010 F
b00000001 I
b00000101 J
b00000110 K
b00000100 L
b00000011 M
b00000110 N
b00000000000000000000000000000101 Q
b0000000000001100 S
b00000001 T
b00000010 V
b0000000000000101 !
b00000001 "
b00000010 #
b00000000000000000000000000010001 %
b00000110 &
b00000101 *
b0000000000001100 -
0.
b00000000000000000000000000010001 /
b00000000000000000000000000001100 0
b00000001 1
b00000010 2
b00000000000000000000000000000101 3
b00000101 4
b00000101 5
b00000110 6
07
b00000000000000000000000000000101 9
b00000000000000000000000000000101 :
b00000000000000000000000000010001 <
b00000111 =
b00001000 >
#11
1C
1D
#16
0C
0D
#21
1C
1D
#26
1P
0C
0D
#31
1C
1D
b01 )
1O
#36
0P
0C
0D
#41
1R
1C
1D
1U
#46
0C
0D
#51
1C
1D
b10 )
0O
#56
0C
0D
#61
b00000000000000000000000001000110 @
b0000000000010101 A
1C
1D
b00000100 F
b00000000000000000000000000010001 G
b00000011 I
b00000111 J
b00001000 K
b00001000 N
1O
b00000000000000000000000000100110 Q
0R
b0000000000100000 S
b00000011 T
0U
b00000100 V
b0000000000010101 !
b00000000000000000000000001000110 %
b00000000000000000000000000010001 '
b01 )
b00000000000000000000000000010001 +
b00000000000000000000000000010001 ,
b0000000000100000 -
b00000000000000000000000001000110 /
b00000000000000000000000000100000 0
b00000011 1
b00000100 2
b00000000000000000000000000010101 3
b00000111 4
b00000111 5
b00001000 6
b00000000000000000000000000010001 8
b00000000000000000000000000100110 9
b00000000000000000000000000100110 :
b00000000000000000000000000010001 ;
b00000000000000000000000001000110 <
1?
#66
0C
0D
#71
1R
1C
1D
1U
#76
0C
0D
#81
1C
1D
b10 )
0O
#86
0C
0D
#91
b00000000000000000000000001111011 @
1C
1D
b00000000000000000000000001111011 %
b00000000000000000000000001000110 '
b00000000000000000000000001000110 G
1H
b11 )
b00000000000000000000000001000110 +
b00000000000000000000000001000110 ,
b00000000000000000000000001111011 /
b00000000000000000000000001011011 Q
0R
0U
b00000000000000000000000001000110 8
b00000000000000000000000001011011 9
b00000000000000000000000001011011 :
b00000000000000000000000001000110 ;
b00000000000000000000000001111011 <
